<?xml version="1.0" encoding="UTF-8" standalone="no"?>
<!-- Created with Inkscape (http://www.inkscape.org/) -->

<svg
   width="101.6mm"
   height="96.410759mm"
   viewBox="0 0 101.6 96.410759"
   version="1.1"
   id="svg1"
   inkscape:version="1.4 (1:1.4+202410161351+e7c3feb100)"
   sodipodi:docname="andymark.svg"
   xmlns:inkscape="http://www.inkscape.org/namespaces/inkscape"
   xmlns:sodipodi="http://sodipodi.sourceforge.net/DTD/sodipodi-0.dtd"
   xmlns="http://www.w3.org/2000/svg"
   xmlns:svg="http://www.w3.org/2000/svg">
  <sodipodi:namedview
     id="namedview1"
     pagecolor="#ffffff"
     bordercolor="#000000"
     borderopacity="0.25"
     inkscape:showpageshadow="2"
     inkscape:pageopacity="0.0"
     inkscape:pagecheckerboard="0"
     inkscape:deskcolor="#d1d1d1"
     inkscape:document-units="in"
     inkscape:zoom="0.65210438"
     inkscape:cx="258.39422"
     inkscape:cy="309.76636"
     inkscape:window-width="1920"
     inkscape:window-height="935"
     inkscape:window-x="1920"
     inkscape:window-y="32"
     inkscape:window-maximized="1"
     inkscape:current-layer="layer1" />
  <defs
     id="defs1" />
  <g
     inkscape:label="Layer 1"
     inkscape:groupmode="layer"
     id="layer1"
     transform="translate(-36.512536,-66.145818)">
    <path
       style="fill:#000000;fill-opacity:1;stroke-width:0.266875"
       d="m 78.477144,162.41869 c -0.156032,-0.11084 -0.365688,-0.75664 -0.465839,-1.43515 -0.178088,-1.20618 -0.16902,-1.22954 0.410064,-1.04605 1.426527,0.45198 2.794353,-0.0498 3.145333,-1.15372 0.07655,-0.23961 -0.59228,-2.57522 -1.485476,-5.19032 l -1.624017,-4.75473 h 1.855122 1.855079 l 0.721857,3.05608 c 0.397017,1.68083 0.779214,3.05381 0.849483,3.05106 0.07046,0 0.434063,-0.94795 0.808534,-2.10044 0.374547,-1.15259 0.86427,-2.52546 1.088426,-3.05107 l 0.407318,-0.95563 h 1.752073 1.752067 l -2.130815,4.90544 c -3.727835,8.58256 -3.794617,8.66873 -6.817713,8.79764 -1.010814,0.0433 -1.965462,-0.0118 -2.121496,-0.12306 z m -41.964608,-2.11424 c 0,-0.50797 0.128272,-0.51082 20.099619,-0.44595 18.90959,0.0613 20.104666,0.0916 20.185521,0.51122 0.0817,0.42167 -1.012544,0.44594 -20.099545,0.44594 -20.035698,0 -20.185595,0 -20.185595,-0.51121 z m 50.289491,0 c 0,-0.50625 0.17025,-0.50969 25.527663,-0.50969 25.35745,0 25.52754,0 25.52754,0.50969 0,0.5063 -0.17009,0.50966 -25.52754,0.50966 -25.357413,0 -25.527663,0 -25.527663,-0.50966 z m -17.996991,-2.159 c -1.952021,-0.70623 -2.966082,-2.94872 -2.424396,-5.36148 0.64749,-2.88456 2.045019,-3.98477 5.276499,-4.15415 l 2.125805,-0.11136 v -1.50816 -1.50819 l 1.850738,0.0751 c 1.051459,0.0425 1.832436,0.18495 1.808345,0.3297 -0.02365,0.1402 -0.187189,2.97928 -0.364248,6.30908 l -0.321769,6.05426 -1.614235,-0.0352 c -1.394462,-0.0304 -1.614101,-0.0998 -1.614101,-0.51178 0,-0.5903 -0.03178,-0.5898 -1.070365,0.0138 -1.20054,0.69818 -2.461048,0.83895 -3.652273,0.40802 z m 4.047244,-3.25882 c 0.362516,-0.48672 0.556435,-1.21303 0.629321,-2.35719 l 0.105473,-1.65357 h -0.808207 c -1.19451,0 -2.305511,0.68071 -2.717557,1.66507 -0.49442,1.18127 -0.456952,1.71429 0.177268,2.51911 0.710919,0.9022 1.87001,0.82533 2.613699,-0.17342 z m 36.2864,3.24442 c -0.56155,-0.20192 -1.04687,-0.36889 -1.07834,-0.37105 -0.18788,-0.0131 -0.83622,-1.59596 -0.83622,-2.0424 0,-1.6219 1.48107,-2.7717 4.27775,-3.32099 1.65883,-0.32571 2.26212,-0.74234 2.01316,-1.39014 -0.19706,-0.51259 -2.28681,-0.51439 -3.73817,0 -0.59684,0.21028 -1.11281,0.38222 -1.14653,0.38222 -0.22207,0 0.38925,-2.14119 0.65884,-2.30752 0.5066,-0.31256 3.94967,-0.57975 5.34473,-0.41483 2.60237,0.30766 2.84928,0.85588 2.60308,5.78031 l -0.18472,3.69503 h -1.76421 -1.76424 l 0.0582,-2.00699 0.0592,-2.00688 -0.64452,0.16139 c -1.93651,0.48524 -2.5557,1.07745 -1.92271,1.83878 0.20966,0.25221 0.6029,0.36118 1.06066,0.29411 0.55132,-0.0809 0.69367,-0.0188 0.58776,0.25682 -0.0766,0.19982 -0.20595,0.6269 -0.28695,0.94909 -0.10004,0.39726 -0.39712,0.63556 -0.92431,0.74075 -1.03738,0.20712 -1.18533,0.19248 -2.3725,-0.23441 z m -72.370874,-0.0131 c 0,-0.0839 1.464733,-2.94806 3.254868,-6.36492 l 3.254764,-6.21242 2.361282,-0.008 c 1.298682,-0.008 2.361283,0.031 2.361283,0.0793 0,0.0864 4.121295,11.3418 4.47421,12.21916 0.169086,0.42037 0.01517,0.45078 -1.925669,0.38224 l -2.109363,-0.0743 -0.5079,-1.70334 -0.507927,-1.70342 -2.438751,-0.0801 -2.438896,-0.0809 -0.841621,1.81984 -0.841623,1.81984 -2.047273,0.0304 c -1.125997,0.0162 -2.047384,-0.0384 -2.047384,-0.12267 z m 9.631046,-6.66848 c -0.07045,-0.24533 -0.280492,-0.99067 -0.46563,-1.65643 -0.18514,-0.66574 -0.402945,-1.21042 -0.484115,-1.21042 -0.08069,0 -0.515763,0.74541 -0.965805,1.65636 l -0.81823,1.65643 h 1.431429 c 1.242202,0 1.41439,-0.0588 1.302351,-0.44594 z m 7.321759,4.33208 c 0.09088,-1.36653 0.234245,-3.48797 0.318593,-4.71432 l 0.153287,-2.22974 h 1.753974 c 1.592472,0 1.754011,0.0473 1.754011,0.51726 0,0.51324 0.01026,0.5131 0.739315,-0.0287 1.4109,-1.04134 4.430498,-0.95775 5.543512,0.15342 0.555629,0.55457 0.609531,0.8187 0.607908,2.97729 0,1.30278 -0.07351,3.12555 -0.161043,4.05064 l -0.159205,1.68193 h -1.769819 -1.769957 l 0.176673,-2.86342 c 0.166864,-2.70478 0.146544,-2.8934 -0.36657,-3.40561 -0.640153,-0.63899 -1.243754,-0.6871 -1.998594,-0.15931 -0.719384,0.50298 -1.022243,1.5549 -1.228834,4.26762 l -0.169682,2.22974 h -1.79444 -1.794368 l 0.165239,-2.48462 z m 36.482511,1.5665 c 0.07864,-0.48281 0.343217,-3.34052 0.588505,-6.35057 l 0.445807,-5.47282 h 2.487718 c 2.152331,0 2.504227,0.0605 2.610304,0.44596 0.06742,0.24531 0.435121,1.82202 0.817109,3.50389 0.381915,1.68183 0.744218,3.22996 0.804859,3.44015 0.06128,0.21028 0.702241,-1.37019 1.425715,-3.51212 l 1.315231,-3.89446 2.55764,0.0719 2.55753,0.0719 -0.0623,2.0386 c -0.0335,1.12127 -0.13244,3.93929 -0.21883,6.26222 l -0.15702,4.22359 -1.617,0.044 -1.61696,0.044 0.11805,-4.39546 c 0.0654,-2.41756 0.0378,-4.2235 -0.0603,-4.01323 -0.098,0.21022 -0.76634,2.15966 -1.48484,4.33207 l -1.306408,3.94984 -1.684905,0.0433 -1.68497,0.0433 -0.386186,-1.70003 c -1.244776,-5.47951 -1.547531,-6.65413 -1.681407,-6.52279 -0.08167,0.0801 -0.263456,1.94352 -0.40397,4.14066 l -0.255163,3.99484 -1.625631,0.0433 -1.625567,0.0433 0.14266,-0.87772 z m 29.107868,-0.80207 c 0.0899,-0.94605 0.16361,-3.06747 0.16459,-4.71428 v -2.99421 h 1.7869 c 1.41039,0 1.78699,0.0801 1.78699,0.37847 0,0.30878 0.15264,0.28557 0.82966,-0.12648 0.45624,-0.27774 1.14551,-0.50544 1.53161,-0.50589 0.64055,0 0.70235,0.0827 0.7055,0.95461 0,0.52561 0.0724,1.2136 0.15747,1.52902 0.1408,0.52472 0.0675,0.57329 -0.86867,0.57329 -1.94007,0 -2.593,1.19776 -2.60474,4.77803 l -0.0105,1.84753 h -1.82387 -1.8238 l 0.16266,-1.7201 z m 8.16429,0.12741 c 0.0847,-0.87599 0.2329,-3.74284 0.3286,-6.37075 l 0.17378,-4.77803 h 1.78555 1.78559 l -0.16186,1.97496 c -0.0889,1.08617 -0.23843,3.95302 -0.33196,6.37067 l -0.16993,4.39579 h -1.7823 -1.78228 z m 5.39927,-1.10325 -1.43984,-2.67945 1.35661,-2.02669 1.35657,-2.02656 h 2.01365 c 1.57297,0 1.95926,0.0694 1.76544,0.3185 -0.13641,0.17522 -0.84886,1.09074 -1.58305,2.03461 l -1.33492,1.71597 1.55181,2.56421 c 0.85347,1.41029 1.55172,2.5976 1.55172,2.63845 0,0.0409 -0.8546,0.0893 -1.89911,0.10742 l -1.8991,0.0327 -1.43978,-2.67945 z m -72.047972,-20.59654 -4.915041,-6.97845 0.06435,-30.924699 0.06435,-30.924633 10.593951,15.21181 c 5.826618,8.366527 10.708676,15.180038 10.848975,15.14115 0.605755,-0.168036 4.859088,-10.833264 6.769522,-16.974531 0.588575,-1.892127 1.624221,-5.618942 2.301346,-8.2819 0.677018,-2.662958 1.286298,-4.669693 1.353822,-4.459503 0.06737,0.210273 0.482983,1.873007 0.923182,3.695039 1.642,6.796674 3.872263,13.687456 6.507198,20.105584 1.862663,4.53686 2.428059,5.759446 2.663821,5.759446 0.11018,0 4.886646,-6.710575 10.614306,-14.912328 5.72763,-8.20176 10.51433,-14.974176 10.63696,-15.049821 0.12669,-0.07843 0.21994,13.26381 0.21585,30.902655 l -0.0103,31.040391 -4.60571,6.49809 c -2.53304,3.57396 -4.71335,6.67004 -4.84508,6.88033 -0.19872,0.31718 -0.35853,0.24441 -0.93945,-0.42768 -1.92719,-2.22989 -6.30082,-10.09221 -9.02808,-16.22932 -0.801262,-1.80315 -1.56273,-3.38413 -1.692027,-3.5132 -0.129258,-0.12912 -1.429487,-0.20186 -2.889178,-0.16164 l -2.653947,0.0727 -1.663521,2.32657 c -0.914931,1.2796 -2.071903,2.91373 -2.570907,3.63139 l -0.907272,1.30486 -2.5461,-3.6314 -2.546106,-3.63142 -2.690709,-0.0719 -2.690774,-0.0719 -0.918526,2.1105 c -1.532044,3.52004 -3.774334,8.06671 -5.474829,11.10166 -1.758914,3.13916 -4.579903,7.44671 -4.87419,7.44279 -0.102094,0 -2.396701,-3.14282 -5.099966,-6.98097 z m 7.53008,-22.00547 c 2.946258,-4.368 3.956682,-6.12427 3.735277,-6.4931 -0.486444,-0.81063 -5.548945,-8.007584 -5.865881,-8.339251 -0.305716,-0.319817 -0.356691,0.948433 -0.356691,8.870321 0,5.55431 0.09394,9.18564 0.234559,9.09864 0.129074,-0.0793 1.142756,-1.49102 2.252736,-3.13661 z m 40.976822,-6.11357 c -0.0335,-4.8704 -0.0622,-8.903075 -0.0633,-8.961481 0,-0.05882 -1.37721,1.865243 -3.05625,4.274801 l -3.05291,4.38099 0.78207,1.3314 c 1.26073,2.14602 5.09366,7.82949 5.28021,7.82949 0.0939,0 0.14389,-3.98479 0.11069,-8.8552 z m -19.254817,1.15788 c 1.146313,-1.64067 2.084143,-3.13341 2.084143,-3.31713 0,-0.18381 -0.408659,-1.70824 -0.908085,-3.38772 -1.22894,-4.132085 -2.865016,-10.876645 -3.076084,-12.680374 -0.217592,-1.860595 -0.49904,-2.055668 -0.6864,-0.475854 -0.247014,2.08181 -1.440321,7.080878 -2.887977,12.098578 l -1.384658,4.79885 2.215129,3.17458 c 1.218319,1.74598 2.292668,3.08391 2.387424,2.9733 0.09497,-0.11058 1.110297,-1.54354 2.256508,-3.18423 z"
       id="path3556"
       inkscape:connector-curvature="0" />
  </g>
</svg>
