<?xml version="1.0" encoding="UTF-8" standalone="no"?>
<!-- Created with Inkscape (http://www.inkscape.org/) -->

<svg
   width="28.75in"
   height="43.75in"
   viewBox="0 0 730.25001 1111.25"
   version="1.1"
   id="svg5"
   inkscape:version="1.1.2 (0a00cf5339, 2022-02-04)"
   sodipodi:docname="WindowBlockerB.svg"
   xmlns:inkscape="http://www.inkscape.org/namespaces/inkscape"
   xmlns:sodipodi="http://sodipodi.sourceforge.net/DTD/sodipodi-0.dtd"
   xmlns:xlink="http://www.w3.org/1999/xlink"
   xmlns="http://www.w3.org/2000/svg"
   xmlns:svg="http://www.w3.org/2000/svg">
  <sodipodi:namedview
     id="namedview7"
     pagecolor="#ffffff"
     bordercolor="#999999"
     borderopacity="1"
     inkscape:pageshadow="0"
     inkscape:pageopacity="0"
     inkscape:pagecheckerboard="0"
     inkscape:document-units="in"
     showgrid="false"
     units="in"
     width="28.75in"
     inkscape:snap-page="true"
     inkscape:zoom="0.14832702"
     inkscape:cx="664.07321"
     inkscape:cy="2632.6963"
     inkscape:window-width="1920"
     inkscape:window-height="1043"
     inkscape:window-x="0"
     inkscape:window-y="30"
     inkscape:window-maximized="1"
     inkscape:current-layer="layer1" />
  <defs
     id="defs2">
    <pattern
       inkscape:collect="always"
       xlink:href="#pattern38266"
       id="pattern38515"
       patternTransform="matrix(-0.32891788,0.09968808,0.10691387,0.35275913,388.17661,110.87737)" />
    <linearGradient
       id="linearGradient38396"
       inkscape:swatch="solid">
      <stop
         style="stop-color:#ffd400;stop-opacity:1;"
         offset="0"
         id="stop38394" />
    </linearGradient>
    <pattern
       patternUnits="userSpaceOnUse"
       width="768.00004"
       height="768"
       patternTransform="translate(388.17661,110.87737)"
       id="pattern38266">
      <rect
         style="fill:#ca2f29;fill-opacity:1;stroke:none;stroke-width:6.3179;stroke-linejoin:bevel"
         id="rect26317"
         width="767.961"
         height="191.99739"
         x="0.039043278"
         y="0" />
      <rect
         style="fill:#b9bbbc;fill-opacity:1;stroke:none;stroke-width:6.3179;stroke-linejoin:bevel"
         id="rect26399"
         width="767.961"
         height="191.99739"
         x="0.039043278"
         y="192.0009" />
      <rect
         style="fill:#ffd400;fill-opacity:1;stroke:none;stroke-width:6.3179;stroke-linejoin:bevel"
         id="rect26401"
         width="767.961"
         height="191.99739"
         x="0.013062485"
         y="384.00296" />
      <rect
         style="fill:#454545;fill-opacity:1;stroke:none;stroke-width:6.3179;stroke-linejoin:bevel"
         id="rect26403"
         width="767.961"
         height="191.99739"
         x="0"
         y="576.00262" />
    </pattern>
    <filter
       inkscape:collect="always"
       style="color-interpolation-filters:sRGB"
       id="filter38787"
       x="-0.014188048"
       y="-0.014271752"
       width="1.0283761"
       height="1.0285435">
      <feGaussianBlur
         inkscape:collect="always"
         stdDeviation="1.896439"
         id="feGaussianBlur38789" />
    </filter>
    <filter
       inkscape:collect="always"
       style="color-interpolation-filters:sRGB"
       id="filter38797"
       x="-0.027788077"
       y="-0.067063053"
       width="1.0555762"
       height="1.1341261">
      <feGaussianBlur
         inkscape:collect="always"
         stdDeviation="4.7054495"
         id="feGaussianBlur38799" />
    </filter>
  </defs>
  <g
     inkscape:label="Layer 1"
     inkscape:groupmode="layer"
     id="layer1">
    <rect
       style="fill:url(#pattern38515);fill-opacity:1;stroke:none;stroke-width:0.666999;stroke-linejoin:bevel"
       id="rect38298"
       width="730.25"
       height="1111.25"
       x="0"
       y="0"
       ry="0" />
    <g
       id="g38941"
       transform="translate(-12.764254,-78.324329)">
      <path
         id="path38779"
         style="fill:#ffffff;fill-opacity:1;stroke:none;stroke-width:2.98405;stroke-opacity:1;filter:url(#filter38787);stop-color:#000000"
         d="m 365.9668,281.05664 c -2.75711,0.0354 -5.51574,0.003 -8.27344,0.0117 -2.98844,1.86377 -6.58441,3.15545 -8.58203,6.23828 -0.89211,1.47207 -1.79301,2.93705 -2.64649,4.43164 -1.61746,-1.62815 -3.30497,-3.19321 -4.99184,-4.74427 -1.95703,-1.30724 -4.38312,-1.4499 -6.59448,-2.06055 -2.54988,-0.47364 -5.14842,0.0667 -7.57038,0.87597 -1.88518,0.50719 -3.77103,1.01193 -5.6558,1.52065 -2.23849,2.66159 -5.39532,4.76187 -6.48009,8.22429 -0.48273,1.64385 -0.95441,3.29087 -1.39881,4.94563 -2.02909,-1.18079 -4.09649,-2.31625 -6.20544,-3.33833 -2.3021,-0.68219 -4.72926,-0.25646 -7.08167,-0.20073 -2.49065,0.26051 -4.74284,1.46461 -6.8025,2.81617 -1.66234,0.9614 -3.3235,1.92485 -4.98656,2.885 -1.39446,2.91322 -3.69545,5.58269 -4.10938,8.94336 -0.13186,1.92934 -0.0991,3.86744 -0.12695,5.80078 -2.20297,-0.57539 -4.42426,-1.12068 -6.64877,-1.58569 -2.47639,-0.15406 -4.78286,0.95305 -7.11053,1.61872 -2.46234,0.94337 -4.35786,2.84833 -6.10886,4.74971 -1.27151,1.27129 -2.54026,2.54536 -3.81348,3.81492 -0.62495,3.42264 -2.29988,6.8241 -1.5064,10.36702 0.40017,1.66076 0.82589,3.31474 1.2603,4.96696 -2.31826,-0.001 -4.64434,0.0638 -6.95496,0.19392 -2.31741,0.49667 -4.15475,2.10125 -6.15094,3.27279 -2.04987,1.4343 -3.47662,3.55929 -4.56529,5.77529 -0.99033,1.72215 -1.98172,3.44368 -2.97139,5.1662 0.25755,3.47309 -0.46831,7.20436 1.22465,10.42082 0.81134,1.50198 1.66138,2.98338 2.49801,4.47176 -2.19519,0.58873 -4.37105,1.26469 -6.53903,1.9385 -2.14883,1.02478 -3.51339,3.07203 -5.15002,4.71309 -1.65315,1.9306 -2.50316,4.39147 -2.98386,6.85128 -0.50852,1.92229 -1.01898,3.84407 -1.52631,5.76666 1.13295,3.28909 1.40198,7.06899 3.85757,9.74241 1.17777,1.23815 2.37567,2.45541 3.57603,3.67166 -1.96591,1.14341 -3.91148,2.34288 -5.82272,3.56687 -1.85542,1.62674 -2.67181,4.04003 -3.85658,6.13376 -1.18319,2.54887 -1.08634,5.42036 -1.00008,8.1603 5.3e-4,1.65378 10e-4,3.30756 0.002,4.96133 1.97684,2.84297 3.17344,6.42976 6.22852,8.36328 1.46203,0.92089 2.95447,1.78933 4.44726,2.66016 -1.6411,1.63417 -3.22768,3.33217 -4.77574,5.04959 -1.28572,2.01896 -1.46282,4.46021 -2.05457,6.71284 -0.46185,2.55457 0.16488,5.13274 0.95079,7.55531 0.49223,1.82885 0.98062,3.65875 1.47523,5.48695 2.63652,2.24329 4.72815,5.37337 8.16395,6.47718 1.66237,0.48916 3.32949,0.96334 5.00206,1.41735 -1.13765,1.97451 -2.2328,3.98185 -3.2726,6.00542 -0.77861,2.35217 -0.32264,4.86163 -0.26631,7.27926 0.25569,2.61367 1.59241,4.93635 2.97359,7.10825 0.90844,1.56957 1.81728,3.13892 2.72548,4.70863 3.15363,1.48688 6.01491,3.9964 9.65234,4.13672 1.69775,0.0371 3.39554,0.0714 5.09375,0.0762 -0.60557,2.25294 -1.1455,4.53179 -1.61567,6.81286 -0.0693,2.37268 0.96751,4.57775 1.58638,6.81995 0.88245,2.35835 2.60875,4.26528 4.47081,5.90621 1.38017,1.37958 2.76039,2.75909 4.14051,4.13872 3.41206,0.62363 6.80094,2.3027 10.33403,1.51529 1.6736,-0.40316 3.34129,-0.82775 5.00582,-1.26725 -10e-4,2.30321 0.0673,4.61403 0.18214,6.91006 0.507,2.35576 2.13376,4.22754 3.31852,6.26171 1.55766,2.21453 3.95389,3.59779 6.30731,4.81784 1.52758,0.87841 3.05492,1.75725 4.58265,2.63539 3.49207,-0.21461 7.22918,0.4751 10.46733,-1.20557 1.4912,-0.82085 2.98073,-1.64002 4.4565,-2.48583 0.5848,2.21079 1.25644,4.40492 1.94832,6.58099 1.10406,2.19792 3.19907,3.6186 4.92059,5.29062 2.00426,1.65517 4.56173,2.36069 7.05183,2.90551 1.77844,0.47117 3.55634,0.94441 5.33512,1.41428 3.18387,-1.10651 6.81921,-1.36332 9.48786,-3.64213 0.35409,-0.17889 0.96372,-1.14902 1.06251,-0.7849 0.0241,0.54012 -0.16363,1.29687 0.64338,1.0325 1.54023,0 3.08047,0 4.6207,0 1.93768,3.02958 5.19061,4.97583 8.5376,6.09373 2.2203,0.69414 4.56905,0.66193 6.86514,0.54299 1.67239,0 3.34479,0 5.01718,0 2.78824,-1.93055 6.25886,-3.11871 8.25112,-6.03297 0.22323,-0.30948 0.38534,-0.83057 0.87974,-0.60375 2.06901,0 4.13802,0 6.20703,0 1.77588,1.30333 3.87109,2.12885 6.0254,2.54883 -0.67188,0 -1.34375,0 -2.01563,0 0.26725,14.86067 0.53295,29.72137 0.80078,44.58203 51.21485,0 102.42969,0 153.64453,0 0.62889,-19.04358 1.25586,-38.08722 1.88282,-57.13086 -12.16537,0 -24.33073,0 -36.4961,0 0.0801,-10.84896 0.16022,-21.69792 0.24024,-32.54687 -1.36784,0 -2.73568,0 -4.10352,0 8.46224,-27.21485 16.92448,-54.42969 25.38672,-81.64454 4.47266,0 8.94531,0 13.41797,0 0,-14.36653 0,-28.73307 0,-43.0996 -15.0625,-0.004 -30.125,-0.009 -45.1875,-0.0137 -0.61095,-2.18928 -1.07612,-4.44943 -1.99319,-6.53185 -1.24646,-2.01813 -3.11333,-3.54419 -4.81921,-5.15307 -2.35887,-1.86132 -5.39139,-2.3988 -8.21299,-3.18617 1.14205,-2.00714 2.25484,-4.04722 3.29751,-6.10713 0.73482,-2.28592 0.26648,-4.71472 0.2426,-7.06077 -0.24682,-2.57532 -1.49016,-4.90703 -2.88747,-7.03308 -0.9439,-1.62936 -1.88423,-3.26081 -2.83038,-4.88886 -3.12019,-1.45806 -5.9225,-3.964 -9.51367,-4.125 -1.74193,-0.0462 -3.48394,-0.0883 -5.22656,-0.0937 0.59088,-2.19094 1.09688,-4.41006 1.59984,-6.61935 0.1659,-2.36714 -0.92498,-4.56137 -1.51436,-6.79754 -0.8876,-2.49496 -2.70505,-4.50449 -4.66006,-6.22736 -1.3436,-1.34128 -2.68747,-2.68228 -4.03089,-4.02372 -3.42522,-0.62842 -6.8313,-2.29726 -10.37695,-1.50586 -1.65658,0.40752 -3.3119,0.81739 -4.95899,1.26172 0.005,-2.32267 -0.0631,-4.65334 -0.18483,-6.96848 -0.51864,-2.33063 -2.13502,-4.17978 -3.31095,-6.19618 -1.50966,-2.16125 -3.82372,-3.54061 -6.12216,-4.72244 -1.5941,-0.92053 -3.18858,-1.84041 -4.78245,-2.76134 -3.48126,0.25337 -7.21903,-0.46316 -10.44378,1.22752 -1.49814,0.80605 -2.97557,1.64898 -4.45466,2.48928 -0.59312,-2.212 -1.26386,-4.40977 -1.95151,-6.59112 -1.08128,-2.17899 -3.16844,-3.57026 -4.8627,-5.22972 -2.00318,-1.66324 -4.55211,-2.41305 -7.05179,-2.95063 -1.80182,-0.47854 -3.60367,-0.95697 -5.40548,-1.43557 -3.25434,1.14743 -7.01426,1.37619 -9.66797,3.81446 -1.25674,1.20194 -2.52979,2.38751 -3.75,3.62695 -1.14051,-1.98713 -2.35994,-3.91491 -3.57588,-5.8387 -1.54999,-1.79265 -3.87501,-2.56362 -5.8784,-3.70835 -1.52247,-0.71301 -3.18923,-1.17012 -4.8797,-1.14045 z m -2.71485,102.0293 c 4.51019,7.7e-4 9.04589,0.83884 13.29493,2.46094 -8.79232,0 -17.58464,-10e-6 -26.37696,0 3.29178,-1.24932 6.59931,-1.99423 10.08789,-2.3125 0.93686,-0.0824 1.98267,-0.13489 2.99414,-0.14844 z m 23.18164,8.04297 c 2.45003,1.94921 4.6732,4.19357 6.52344,6.72265 0.25962,7.44084 0.33585,14.88709 0.51105,22.33036 0.0566,2.82152 0.11521,5.64301 0.17059,8.46456 1.1543,0 2.3086,0 3.46289,0 -3.48893,6.85938 -6.97786,13.71875 -10.46679,20.57813 -1.66371,1.30242 -3.41441,2.49834 -5.26758,3.51562 -2.24545,-8.03125 -4.49089,-16.0625 -6.73633,-24.09375 3.67187,0 7.34375,0 11.01562,0 0,-12.70572 0,-25.41145 0,-38.11718 0.26237,0.19987 0.52474,0.39974 0.78711,0.59961 z m 109.36719,30.33789 c 0.77836,0.0931 -0.14356,0.82197 -0.0429,0.082 0.003,-0.0292 0.0164,-0.0677 0.0429,-0.082 z m -168.14844,7.22656 c 0.89554,0.0568 1.79204,-0.01 2.6875,-0.0352 1.33138,4.89779 2.66276,9.79558 3.99414,14.69336 -3.28959,-4.12915 -5.69758,-8.86314 -6.97475,-13.96668 -0.0258,-0.35942 -0.47495,-0.94985 0.29311,-0.69152 z m 129.98633,86.6543 c 0.49007,0.38135 -0.71449,-0.13173 0,0 z m -3.40234,37.4707 c 15.59892,0.042 31.19791,0.0195 46.79687,0.0195 0,0.84961 0,1.69922 0,2.54883 -15.99153,0 -31.98307,0 -47.97461,0 0.003,-0.83721 -0.0127,-1.67473 0.01,-2.51172 0.38922,-0.0209 0.77863,-0.038 1.16797,-0.0566 z m -52.82031,1.88281 c 0.27836,0.86615 -0.48979,0.69462 -1.09414,0.68555 -1.08125,0 -2.16251,0 -3.24376,0 1.46385,-0.32911 2.88456,-0.81793 4.33008,-1.21484 0.003,0.17643 0.005,0.35286 0.008,0.52929 z" />
      <path
         id="path38696"
         style="fill:#ffffff;fill-opacity:1;stroke:none;stroke-width:2.98405;stroke-opacity:1;stop-color:#000000"
         d="m 365.70703,284.24805 c -2.3763,-10e-4 -4.7526,-0.003 -7.12891,-0.004 -2.43926,1.53317 -5.50164,2.48686 -7.02297,5.12312 -1.2843,2.22571 -2.69691,4.37958 -3.85984,6.67376 0.20678,0.53589 -0.58171,0.18328 -0.84961,0.35156 -0.56968,0.34575 -0.77608,-0.13619 -1.01953,-0.57227 -1.40018,-2.02428 -3.47096,-3.4391 -5.11883,-5.24133 -0.69601,-0.74781 -1.48888,-1.52386 -2.56812,-1.58349 -2.4948,-0.61521 -5.13872,-1.61672 -7.70154,-0.73275 -2.34449,0.62845 -4.68874,1.25781 -7.03338,1.8857 -1.83662,2.16768 -4.55138,3.81254 -5.32154,6.71196 -0.66303,2.49613 -1.49131,4.95073 -2.00464,7.4853 0.2565,0.48458 -0.65717,0.34802 -0.92359,0.6282 -0.45708,0.44896 -0.7251,-0.32729 -1.11313,-0.52117 -1.8711,-1.50408 -4.16214,-2.33807 -6.17876,-3.61837 -0.85206,-0.52997 -1.80213,-1.03299 -2.83636,-0.83589 -2.59182,0.0407 -5.43348,-0.21271 -7.69092,1.32511 -2.07728,1.20399 -4.15458,2.40796 -6.23184,3.61197 -1.23411,2.56079 -3.43861,4.85432 -3.41993,7.86133 -6.5e-4,2.58188 -0.15522,5.16591 -0.004,7.74609 0.37088,0.33891 -0.40599,0.48163 -0.59375,0.74609 -0.29946,0.48743 -0.66899,0.29057 -1.04883,0.0234 -2.27472,-1.1072 -4.8462,-1.29008 -7.23711,-2.04755 -1.00565,-0.36191 -2.11689,-0.47468 -3.10869,-0.007 -2.4137,0.67163 -5.12989,1.17428 -6.85617,3.17808 -1.71098,1.71231 -3.42462,3.42199 -5.13397,5.13593 -0.50618,2.76881 -2.01666,5.51417 -1.27076,8.38712 0.65705,2.50187 1.19717,5.03669 2.00123,7.49764 0.56842,0.23044 -0.15347,0.51384 -0.2652,0.83134 -0.23302,0.50713 -0.59609,0.67652 -1.1098,0.4089 -2.46604,-0.47247 -4.97935,0.003 -7.46718,-0.10633 -1.01342,-0.0374 -2.1122,-0.0138 -2.90581,0.70761 -2.20187,1.33964 -4.78756,2.50574 -5.97085,4.9549 -1.2,2.086 -2.39874,4.17272 -3.59952,6.25827 0.20775,2.83162 -0.52799,5.91168 0.9733,8.50518 1.2837,2.22848 2.44609,4.52683 3.84311,6.68818 0.57151,0.0791 -0.0424,0.57609 -0.0664,0.88867 -0.0439,0.65825 -0.5167,0.67892 -1.05862,0.64715 -2.4351,0.20476 -4.67898,1.27904 -7.04786,1.80405 -1.00223,0.2421 -2.08757,0.5306 -2.68615,1.44581 -1.78907,1.85767 -3.97891,3.66072 -4.49694,6.3295 -0.61806,2.33147 -1.23821,4.66238 -1.85496,6.99419 0.92655,2.68547 1.01797,5.85123 3.13687,7.97161 1.82006,1.81481 3.54216,3.72988 5.44907,5.45613 0.58775,-0.042 0.0556,0.66084 0.1289,1 0.20109,0.64646 -0.41671,0.62495 -0.84765,0.78125 -2.40174,0.87125 -4.36944,2.57207 -6.6276,3.72946 -0.9158,0.42183 -1.66572,1.14167 -2.02045,2.09569 -1.24541,2.22431 -2.82004,4.53829 -2.59409,7.21469 6.2e-4,2.37539 0.001,4.75078 0.002,7.12617 1.60122,2.33248 2.48759,5.3632 5.07153,6.85938 2.24355,1.29632 4.41712,2.71638 6.7273,3.89453 0.53687,-0.17624 0.19579,0.69491 0.3869,0.99763 0.29166,0.59273 -0.44956,0.67905 -0.79117,1.00016 -1.95409,1.42463 -3.35458,3.44282 -5.12947,5.06574 -0.72857,0.66993 -1.44555,1.4561 -1.50593,2.49451 -0.60242,2.4634 -1.615,5.08114 -0.76054,7.60689 0.63785,2.37275 1.27554,4.74555 1.91349,7.11827 2.15081,1.83941 3.78936,4.53584 6.67032,5.31975 2.50661,0.67075 4.97556,1.49422 7.52109,2.01424 0.4808,-0.25536 0.35095,0.65755 0.62969,0.9258 0.45838,0.46981 -0.33443,0.74211 -0.53211,1.14243 -1.50274,1.878 -2.32037,4.14317 -3.60065,6.15201 -0.60877,0.87763 -1.03899,1.91894 -0.84077,3.00532 0.0188,2.56908 -0.1783,5.38404 1.36594,7.60571 1.18833,2.05314 2.37878,4.10506 3.56579,6.15896 2.5713,1.22495 4.87579,3.42385 7.8871,3.40348 2.5635,0.007 5.12879,0.15249 7.69102,0.0145 0.36368,-0.46345 0.45809,0.39498 0.74024,0.55273 0.48899,0.28357 0.37407,0.64482 0.0907,1.02717 -1.13694,2.27544 -1.30966,4.86633 -2.0758,7.26712 -0.28943,0.94817 -0.53475,1.98941 -0.0701,2.92436 0.70264,2.44945 1.1405,5.21889 3.15379,6.99689 1.7373,1.73482 3.47482,3.46942 5.21199,5.20439 2.76986,0.50713 5.52056,2.02728 8.39491,1.27067 2.5085,-0.66317 5.05043,-1.20454 7.52305,-1.99724 0.30149,-0.55027 0.6515,0.35524 1.04023,0.45478 0.64275,0.1723 0.076,0.81196 0.10837,1.2534 -0.3693,2.43665 0.0707,4.90171 -0.0461,7.35155 -0.084,1.0099 0.12607,2.04405 0.79562,2.83185 1.28725,2.15791 2.46633,4.64834 4.84555,5.80386 2.09263,1.20367 4.18501,2.40782 6.27781,3.6112 2.82918,-0.18479 5.89799,0.52987 8.49495,-0.94905 2.23965,-1.30737 4.57725,-2.44619 6.73356,-3.89274 0.14668,-0.50525 0.70054,0.20114 1.06627,0.19155 0.60739,-0.0229 0.37888,0.55707 0.43959,0.94907 0.21363,2.47354 1.30111,4.75239 1.82754,7.1604 0.229,0.97787 0.53778,2.0174 1.42303,2.59899 1.85437,1.78514 3.65057,3.97508 6.31771,4.4854 2.33474,0.62058 4.66886,1.24353 7.00399,1.86263 2.70181,-0.93038 5.89872,-1.02224 8.0138,-3.1813 1.80986,-1.82551 3.75714,-3.51741 5.44518,-5.46127 0.19898,-0.69606 0.18355,0.4887 0.18904,0.70484 0.0255,1.55764 0.0798,3.11466 0.1176,4.67211 1.32162,0 2.64323,0 3.96485,0 1.03078,1.9507 2.42964,3.86693 4.529,4.74534 1.99138,1.24864 4.32397,2.18886 6.71592,1.89138 2.13255,0 4.2651,0 6.39766,0 2.31322,-1.59788 5.46521,-2.5247 6.93554,-5.18555 0.38703,-0.46703 0.49241,-1.15751 0.98086,-1.45117 3.16198,0 6.32396,0 9.48594,0 1.90782,1.88409 4.63783,2.48396 7.19134,2.90404 1.76562,0.2274 3.53008,-0.16656 5.18392,-0.7591 1.75379,-0.47421 3.50783,-0.9475 5.26146,-1.42228 0.40526,-0.46143 0.82355,-0.91159 1.27344,-1.33008 0,3.16927 0,6.33854 0,9.50781 -4.25847,0 -8.51693,0 -12.77539,0 0.22829,12.74348 0.45471,25.487 0.68359,38.23047 49.15234,0 98.30469,0 147.45703,0 0.55862,-16.92639 1.11519,-33.85285 1.67188,-50.7793 -12.13803,0 -24.27605,0 -36.41407,0 0.0801,-10.84896 0.16022,-21.69791 0.24024,-32.54687 -1.73893,0 -3.47787,0 -5.2168,0 9.11849,-29.33203 18.23698,-58.66407 27.35547,-87.9961 4.19531,0 8.39062,0 12.58594,0 0,-12.24935 0,-24.49869 0,-36.74804 -14.84302,-0.008 -29.70752,0.0104 -44.53711,-0.0137 -0.38955,-2.52791 -1.36662,-4.91556 -1.88354,-7.41499 -0.43426,-1.48091 -1.8255,-2.31965 -2.75553,-3.4604 -1.36538,-1.45226 -3.04058,-2.73219 -5.05027,-3.08028 -2.24089,-0.60608 -4.44406,-1.35547 -6.72863,-1.78847 -0.40943,0.27459 -0.31241,-0.64147 -0.5444,-0.86925 -0.41473,-0.36228 -0.0355,-0.5934 0.23377,-0.85988 1.64376,-1.85567 2.46137,-4.25006 3.78723,-6.31793 0.52841,-0.86292 1.13498,-1.87381 0.93212,-2.87747 -0.0562,-2.62655 0.23101,-5.50637 -1.31628,-7.80261 -1.20502,-2.0807 -2.41224,-4.16012 -3.61588,-6.24161 -2.56168,-1.21426 -4.84356,-3.41365 -7.83737,-3.41053 -2.59375,0.002 -5.19005,-0.16793 -7.78177,3.8e-4 -0.37496,0.38401 -0.48636,-0.47559 -0.78125,-0.6543 -0.6172,-0.31393 -0.0262,-0.76553 0.11328,-1.19141 1.02443,-2.26284 1.22904,-4.75351 1.97082,-7.10054 0.33398,-0.95411 0.46683,-2.01301 0.017,-2.95431 -0.71076,-2.45127 -1.19839,-5.20854 -3.22898,-6.96922 -1.70732,-1.7036 -3.41498,-3.40687 -5.12209,-5.11069 -2.8065,-0.51965 -5.60692,-2.04776 -8.51562,-1.24219 -2.47864,0.66659 -4.99822,1.1863 -7.43555,2 -0.28356,0.45643 -0.62515,-0.38584 -0.98739,-0.47252 -0.63287,-0.16202 -0.14362,-0.74339 -0.14488,-1.17499 0.39744,-2.42335 -0.048,-4.87943 0.0642,-7.3181 0.0478,-0.98598 -0.0164,-2.04059 -0.706,-2.81113 -1.3383,-2.19048 -2.49455,-4.77111 -4.9344,-5.9501 -2.09322,-1.20705 -4.18694,-2.41323 -6.27985,-3.62082 -2.83313,0.20695 -5.91296,-0.52568 -8.50969,0.97023 -2.23861,1.29132 -4.55058,2.459 -6.71492,3.87548 -0.12267,0.50484 -0.6842,-0.14928 -1.03177,-0.16424 -0.58579,-0.0322 -0.44613,-0.56072 -0.47476,-0.99595 -0.21074,-2.47096 -1.30032,-4.74663 -1.82518,-7.15248 -0.22814,-0.97498 -0.53601,-2.01022 -1.41882,-2.58934 -1.86083,-1.78404 -3.67103,-3.96324 -6.33728,-4.4834 -2.33018,-0.61928 -4.65975,-1.24092 -6.99032,-1.85873 -2.68377,0.92087 -5.85099,1.01126 -7.96701,3.13173 -1.82599,1.8291 -3.76319,3.55071 -5.4783,5.48741 0.0111,0.54682 -0.67879,0.0129 -1.01953,0.0918 -0.65515,0.20641 -0.57621,-0.50355 -0.76758,-0.91406 -0.87309,-2.32109 -2.50279,-4.24491 -3.63782,-6.43306 -0.45253,-0.86456 -1.03183,-1.72857 -2.00081,-2.04826 -2.25904,-1.21828 -4.52942,-2.89951 -7.23637,-2.68469 z m -2.52344,95.66211 c 10.78228,-0.0617 21.55482,4.41343 29.06906,12.20207 1.43167,1.47384 2.69986,2.99639 3.89774,4.67293 0.24147,9.56097 0.41612,19.12344 0.60547,28.68554 1.83854,0 3.67708,0 5.51562,0 -4.37695,8.60743 -8.7539,17.21485 -13.13086,25.82227 -2.76317,2.26531 -5.71559,4.12692 -8.95312,5.60937 -0.51494,0.30236 -1.04257,0.56284 -1.03995,-0.29722 -2.9001,-10.37814 -5.80019,-20.75628 -8.70028,-31.13442 4.00781,0 8.01562,0 12.02343,0 0,-12.24935 0,-24.49869 0,-36.74804 -14.74739,0 -29.49479,0 -44.24218,0 6.27115,-4.99314 14.03757,-8.08867 22.03906,-8.67774 0.898,-0.0667 1.96154,-0.11496 2.91601,-0.13476 z m -39.7207,40.38281 c -0.5377,2.97301 2.57239,5.77379 5.47461,5.18164 1.27279,-10e-4 2.54557,-0.003 3.81836,-0.004 2.52799,9.27995 5.05599,18.5599 7.58398,27.83985 -6.56305,-4.57094 -11.72095,-11.12039 -14.59375,-18.50391 -2.03173,-5.22937 -2.93261,-10.90284 -2.66645,-16.51198 0.0592,-1.28146 0.18994,-2.65872 0.38325,-3.96654 0,1.98829 0,3.97657 0,5.96485 z m 172.54102,1.33594 c 0.6675,0.36807 -0.54995,0.44762 -0.19922,0 0.0653,-0.028 0.1326,-0.005 0.19922,0 z m -38.39649,93.74804 c 0.44143,0.31897 -0.43365,0.21397 -0.13867,0.0156 l 0.0625,-0.0176 z m -5.55469,33.78516 c -0.2064,0.85534 0.84159,0.38064 1.3293,0.5 16.94232,0 33.88464,0 50.82695,0 0,2.9668 0,5.93359 0,8.90039 -18.10807,0 -36.21614,0 -54.32421,0 0,-12.38411 0,-24.76823 0,-37.15234 0.73197,-0.25531 0.63883,0.39004 0.65217,0.95153 0.50526,8.93347 1.01053,17.86694 1.51579,26.80042 z" />
      <text
         xml:space="preserve"
         style="font-style:normal;font-variant:normal;font-weight:bold;font-stretch:normal;font-size:74.8848px;line-height:0.9;font-family:'Open Sans';-inkscape-font-specification:'Open Sans Bold';font-variant-ligatures:normal;font-variant-caps:normal;font-variant-numeric:normal;font-feature-settings:normal;text-align:start;letter-spacing:0px;word-spacing:0px;writing-mode:lr-tb;text-anchor:start;fill:#ffffff;fill-opacity:1;stroke:none;stroke-width:2.06355;filter:url(#filter38797)"
         x="378.46689"
         y="742.10645"
         id="text38795"><tspan
           sodipodi:role="line"
           id="tspan38791"
           x="378.46689"
           y="742.10645"
           style="font-style:normal;font-variant:normal;font-weight:900;font-stretch:normal;font-size:96.2807px;font-family:'Fira Sans';-inkscape-font-specification:'Fira Sans, Heavy';font-variant-ligatures:normal;font-variant-caps:normal;font-variant-numeric:normal;font-variant-east-asian:normal;text-align:center;text-anchor:middle;fill:#ffffff;fill-opacity:1;stroke-width:2.06355">Westside</tspan><tspan
           sodipodi:role="line"
           x="378.46689"
           y="828.75909"
           style="font-style:normal;font-variant:normal;font-weight:900;font-stretch:normal;font-size:96.2807px;font-family:'Fira Sans';-inkscape-font-specification:'Fira Sans, Heavy';font-variant-ligatures:normal;font-variant-caps:normal;font-variant-numeric:normal;font-variant-east-asian:normal;text-align:center;text-anchor:middle;fill:#ffffff;fill-opacity:1;stroke-width:2.06355"
           id="tspan38793">Robotics</tspan></text>
      <text
         xml:space="preserve"
         style="font-style:normal;font-variant:normal;font-weight:bold;font-stretch:normal;font-size:74.8848px;line-height:0.9;font-family:'Open Sans';-inkscape-font-specification:'Open Sans Bold';font-variant-ligatures:normal;font-variant-caps:normal;font-variant-numeric:normal;font-feature-settings:normal;text-align:start;letter-spacing:0px;word-spacing:0px;writing-mode:lr-tb;text-anchor:start;fill:#000000;fill-opacity:1;stroke:none;stroke-width:2.06355"
         x="378.46689"
         y="742.10645"
         id="text869"><tspan
           sodipodi:role="line"
           id="tspan867"
           x="378.46689"
           y="742.10645"
           style="font-style:normal;font-variant:normal;font-weight:900;font-stretch:normal;font-size:96.2807px;font-family:'Fira Sans';-inkscape-font-specification:'Fira Sans, Heavy';font-variant-ligatures:normal;font-variant-caps:normal;font-variant-numeric:normal;font-variant-east-asian:normal;text-align:center;text-anchor:middle;stroke-width:2.06355">Westside</tspan><tspan
           sodipodi:role="line"
           x="378.46689"
           y="828.75909"
           style="font-style:normal;font-variant:normal;font-weight:900;font-stretch:normal;font-size:96.2807px;font-family:'Fira Sans';-inkscape-font-specification:'Fira Sans, Heavy';font-variant-ligatures:normal;font-variant-caps:normal;font-variant-numeric:normal;font-variant-east-asian:normal;text-align:center;text-anchor:middle;stroke-width:2.06355"
           id="tspan7673">Robotics</tspan></text>
      <g
         id="g5239"
         transform="matrix(12.053042,0,0,12.053017,-1576.4451,-1067.7753)"
         style="stroke-width:0.990305">
        <path
           id="path5081"
           style="fill:#454545;stroke:none;stroke-width:0.247576;stroke-opacity:1;stop-color:#000000"
           d="m 160.66823,112.65566 -0.27182,0.15192 -0.2713,0.45682 v 0.339 a 9.8911562,9.8911562 0 0 0 -0.94723,0.12868 l -0.0889,-0.33125 -0.38086,-0.37104 -0.30179,-0.0765 -0.52503,0.14056 -0.22273,0.21756 -0.14417,0.5116 0.0889,0.33073 a 9.8911562,9.8911562 0 0 0 -0.8847,0.36225 l -0.1695,-0.29352 -0.46405,-0.25942 -0.3111,0.004 -0.47077,0.27234 -0.15916,0.26717 -0.007,0.53175 0.1695,0.29352 a 9.8911562,9.8911562 0 0 0 -0.75602,0.58498 l -0.24288,-0.24288 -0.51522,-0.13075 -0.29972,0.0847 -0.38396,0.38448 -0.0837,0.2992 0.13074,0.51522 0.24236,0.24236 a 9.8911562,9.8911562 0 0 0 -0.58498,0.75603 l -0.29352,-0.1695 -0.53175,0.007 -0.26768,0.15916 -0.2713,0.47025 -0.004,0.31161 0.25994,0.46354 0.29352,0.1695 a 9.8911562,9.8911562 0 0 0 -0.36225,0.8847 l -0.33125,-0.0889 -0.5116,0.14469 -0.21755,0.22273 -0.14005,0.52503 0.0765,0.30179 0.37104,0.38034 0.33073,0.0889 a 9.8911562,9.8911562 0 0 0 -0.12816,0.94723 h -0.33951 l -0.45682,0.27182 -0.15193,0.27182 V 123.73 l 0.15244,0.27181 0.45682,0.2713 h 0.33848 a 9.8911562,9.8911562 0 0 0 0.12868,0.94723 l -0.33125,0.0889 -0.37052,0.38085 -0.077,0.30179 0.14107,0.52504 0.21704,0.22272 0.5116,0.14418 0.33073,-0.0889 a 9.8911562,9.8911562 0 0 0 0.36225,0.88522 l -0.293,0.1695 -0.25994,0.46354 0.004,0.31161 0.27181,0.47025 0.26769,0.15917 0.53123,0.007 0.29301,-0.1695 a 9.8911562,9.8911562 0 0 0 0.58601,0.75603 l -0.24288,0.24288 -0.13074,0.51521 0.0837,0.29972 0.38448,0.38396 0.29972,0.0842 0.5147,-0.13074 0.24288,-0.24288 a 9.8911562,9.8911562 0 0 0 0.75602,0.58601 l -0.1695,0.29301 0.007,0.53175 0.15916,0.26768 0.47077,0.2713 0.3111,0.004 0.46353,-0.25993 0.1695,-0.29301 a 9.8911562,9.8911562 0 0 0 0.88522,0.36226 l -0.0889,0.33072 0.14417,0.5116 0.22273,0.21756 0.52503,0.14004 0.30179,-0.0765 0.38086,-0.37104 0.0889,-0.33072 a 9.8911562,9.8911562 0 0 0 0.94671,0.12867 v 0.339 l 0.27182,0.45682 0.27182,0.15193 h 0.54312 l 0.27182,-0.15245 0.27181,-0.45682 v -0.33641 a 9.8911562,9.8911562 0 0 0 0.9493,-0.12454 l 0.0868,0.32504 0.38085,0.37052 0.30179,0.077 0.52452,-0.14108 0.22272,-0.21704 0.1447,-0.5116 -0.0873,-0.32556 a 9.8911562,9.8911562 0 0 0 0.88419,-0.36587 l 0.16846,0.29146 0.46354,0.25993 0.31161,-0.004 0.47026,-0.27181 0.15916,-0.26769 0.007,-0.53123 -0.16846,-0.29197 a 9.8911562,9.8911562 0 0 0 0.75913,-0.5824 l 0.23822,0.23823 0.51522,0.13074 0.29972,-0.0842 0.38396,-0.38447 0.0842,-0.29973 -0.13074,-0.51469 -0.23823,-0.23823 a 9.8911562,9.8911562 0 0 0 0.58291,-0.75964 l 0.29197,0.16846 0.53124,-0.007 0.26768,-0.15917 0.2713,-0.47077 0.004,-0.31109 -0.25942,-0.46354 -0.29197,-0.16846 a 9.8911562,9.8911562 0 0 0 0.36639,-0.88471 l 0.32556,0.0873 0.51159,-0.14418 0.21705,-0.22272 0.14056,-0.52504 -0.077,-0.30179 -0.37052,-0.38085 -0.32505,-0.0868 a 9.8911562,9.8911562 0 0 0 0.12454,-0.94878 h 0.33693 l 0.45682,-0.27182 0.15245,-0.27181 -5.2e-4,-0.54312 -0.15244,-0.27182 -0.45631,-0.27182 h -0.33951 a 9.8911562,9.8911562 0 0 0 -0.12816,-0.94723 l 0.33125,-0.0889 0.37103,-0.38086 0.0765,-0.30179 -0.14056,-0.52451 -0.21756,-0.22273 -0.51108,-0.14469 -0.33125,0.0889 a 9.8911562,9.8911562 0 0 0 -0.36277,-0.8847 l 0.29404,-0.1695 0.25942,-0.46354 -0.004,-0.31161 -0.27182,-0.47025 -0.26768,-0.15916 -0.53175,-0.007 -0.29352,0.1695 a 9.8911562,9.8911562 0 0 0 -0.58498,-0.75551 l 0.24288,-0.24288 0.13074,-0.51522 -0.0853,-0.29972 -0.38395,-0.38396 -0.29973,-0.0842 -0.51521,0.13126 -0.24236,0.24236 a 9.8911562,9.8911562 0 0 0 -0.75551,-0.58549 l 0.16898,-0.29404 -0.007,-0.53123 -0.15916,-0.26769 -0.47026,-0.2713 -0.31161,-0.004 -0.46353,0.25993 -0.1695,0.29352 a 9.8911562,9.8911562 0 0 0 -0.8847,-0.36277 l 0.0889,-0.33124 -0.14418,-0.5116 -0.22324,-0.21704 -0.52503,-0.14056 -0.30179,0.0765 -0.38034,0.37104 -0.0889,0.33124 a 9.8911562,9.8911562 0 0 0 -0.94723,-0.12815 v -0.33952 l -0.27182,-0.45682 -0.27182,-0.15193 z m 0.27182,6.97063 a 3.8318112,3.8318112 0 0 1 3.8318,3.83232 3.8318112,3.8318112 0 0 1 -3.8318,3.83181 3.8318112,3.8318112 0 0 1 -3.83233,-3.83181 3.8318112,3.8318112 0 0 1 3.83233,-3.83232 z" />
        <path
           inkscape:export-ydpi="92"
           inkscape:export-xdpi="92"
           inkscape:export-filename="/home/brad/westsiderobotics.info/public/wbi-mark.png"
           inkscape:connector-curvature="0"
           id="path843-8"
           d="m 162.93926,115.99602 -1.24359,0.32149 -1.24352,0.3215 -0.32735,1.22173 -0.32735,1.22172 1.24352,-0.32151 1.24352,-0.3215 0.91625,0.90024 0.91617,0.90021 0.32734,-1.22172 0.32735,-1.22173 -0.91617,-0.90021 z"
           style="display:inline;fill:#ffd500;fill-opacity:1;stroke:none;stroke-width:0.495214;stroke-linejoin:bevel;stroke-miterlimit:4;stroke-dasharray:none;stroke-dashoffset:0;stroke-opacity:1"
           inkscape:transform-center-x="-5.3697044"
           inkscape:transform-center-y="-21.324086" />
        <path
           inkscape:export-ydpi="92"
           inkscape:export-xdpi="92"
           inkscape:export-filename="/home/brad/westsiderobotics.info/public/wbi-mark.png"
           inkscape:connector-curvature="0"
           id="path5293"
           d="m 154.23248,119.52743 -1e-4,1.26499 -5e-5,1.26491 1.11782,0.63242 1.11783,0.63241 6e-5,-1.26493 5e-5,-1.26491 1.11792,-0.63258 1.11789,-0.6325 -1.11783,-0.63241 -1.11783,-0.63241 -1.11788,0.6325 z"
           style="display:inline;fill:#b9bbbc;fill-opacity:1;stroke:none;stroke-width:0.495214;stroke-linejoin:bevel;stroke-miterlimit:4;stroke-dasharray:none;stroke-dashoffset:0;stroke-opacity:1"
           inkscape:transform-center-x="8.735016"
           inkscape:transform-center-y="4.7721636" />
        <path
           inkscape:export-ydpi="92"
           inkscape:export-xdpi="92"
           inkscape:export-filename="/home/brad/westsiderobotics.info/public/wbi-mark.png"
           inkscape:connector-curvature="0"
           id="path5295"
           d="m 155.40788,128.72822 1.24354,0.32167 1.24349,0.32162 0.91607,-0.90019 0.91606,-0.90019 -1.24349,-0.32162 -1.24349,-0.32161 -0.32748,-1.22186 -0.32742,-1.2218 -0.91607,0.90019 -0.91606,0.90019 0.32742,1.2218 z"
           style="display:inline;fill:#ca2f29;fill-opacity:1;stroke:none;stroke-width:0.495214;stroke-linejoin:bevel;stroke-miterlimit:4;stroke-dasharray:none;stroke-dashoffset:0;stroke-opacity:1"
           inkscape:transform-center-x="14.774265"
           inkscape:transform-center-y="13.854844" />
        <path
           style="display:inline;fill:#ca2f29;fill-opacity:1;stroke:#000000;stroke-width:0.377306;stroke-miterlimit:4;stroke-dasharray:none;stroke-opacity:1"
           d="m 158.76727,123.40674 2.25466,8.26683 h -1.04868 l 0.0524,2.03699 h 3.82768 v -2.03699 h -0.70786 l 1.69803,-3.10489 v 6.84636 h -1.05106 l 0.0389,2.20575 h 11.29278 l 0.10665,-3.24684 h -2.12284 v 1.04109 h -5.47329 v -6.84636 l 1.64559,3.10489 h -0.63961 l 0.11569,2.03699 h 3.47066 l 0.0151,-2.03699 h -0.60226 l 2.56927,-8.26683 h 0.91759 v -2.08275 h -4.21259 l -0.0109,2.08275 h 1.28715 l -1.99249,5.16194 -2.1498,-5.16194 h 0.99625 v -2.08275 h -4.90258 l 0.042,2.08275 h 0.77071 l -2.62171,5.16194 -1.44193,-5.16194 h 1.15078 v -2.08275 h -3.92961 v 2.08275 z"
           id="path1841"
           sodipodi:nodetypes="ccccccccccccccccccccccccccccccccccccccccccc" />
      </g>
    </g>
    <path
       inkscape:connector-curvature="0"
       id="path903"
       d="m 142.52118,878.31447 v 50.06461 L 99.159014,903.34676 Z"
       style="fill:#ffffff;fill-opacity:1;stroke:none;stroke-width:1.33716px;stroke-linecap:butt;stroke-linejoin:miter;stroke-opacity:1" />
    <path
       inkscape:export-ydpi="92"
       inkscape:export-xdpi="92"
       inkscape:export-filename="/home/brad/westsiderobotics.info/public/wbi-mark.png"
       inkscape:connector-curvature="0"
       id="path841"
       d="m 99.159519,853.28188 -21.682146,12.51599 -21.68048,12.51605 v 25.03204 25.03372 l 21.68048,12.516 21.682146,12.516 21.680531,-12.516 21.68048,-12.516 -21.68048,-12.51601 -21.680531,-12.51771 v -25.03204 z"
       style="fill:#7a7979;fill-opacity:1;stroke:#000000;stroke-width:2.52723;stroke-linejoin:bevel;stroke-miterlimit:4;stroke-dasharray:none;stroke-dashoffset:0;stroke-opacity:1" />
    <path
       inkscape:export-ydpi="92"
       inkscape:export-xdpi="92"
       inkscape:export-filename="/home/brad/westsiderobotics.info/public/wbi-mark.png"
       inkscape:connector-curvature="0"
       id="path843"
       d="m 142.52214,828.24984 -21.68209,12.51605 -21.680531,12.51599 v 25.03204 25.03204 l 21.680531,-12.51605 21.68048,-12.51599 21.68214,12.51599 21.68048,12.51605 v -25.03204 -25.03204 l -21.68048,-12.51599 z"
       style="fill:#808080;fill-opacity:1;stroke:#000000;stroke-width:2.56735;stroke-linejoin:bevel;stroke-miterlimit:4;stroke-dasharray:none;stroke-dashoffset:0;stroke-opacity:1" />
    <path
       inkscape:export-ydpi="92"
       inkscape:export-xdpi="92"
       inkscape:export-filename="/home/brad/westsiderobotics.info/public/wbi-mark.png"
       inkscape:connector-curvature="0"
       id="path851"
       d="m 142.52053,878.31392 v 25.03204 25.03372 l -21.68048,12.516 -21.680531,12.516 21.680531,12.516 21.68209,12.5161 21.68053,-12.5161 21.68048,-12.516 v -25.032 -25.03372 l -21.68048,-12.51605 z"
       style="fill:#bbbbbb;fill-opacity:1;stroke:#000000;stroke-width:2.52723;stroke-linejoin:bevel;stroke-miterlimit:4;stroke-dasharray:none;stroke-dashoffset:0;stroke-opacity:1" />
    <path
       inkscape:connector-curvature="0"
       id="path889-3"
       d="m 326.15988,927.86088 43.36203,-25.03215 -43.36197,-25.03219 z"
       style="fill:#fbfbfb;fill-opacity:1;stroke:none;stroke-width:1.33716px;stroke-linecap:butt;stroke-linejoin:miter;stroke-opacity:1"
       inkscape:transform-center-x="24.568452"
       inkscape:transform-center-y="-28.348214" />
    <path
       style="fill:#9d9d9d;fill-opacity:1;stroke:#000000;stroke-width:2.52691;stroke-linejoin:bevel;stroke-miterlimit:4;stroke-dasharray:none;stroke-dashoffset:0;stroke-opacity:1"
       d="m 282.79739,852.76432 21.68154,12.5158 21.68101,12.51642 v 25.03219 l -3e-5,25.03225 -21.68098,12.5158 -21.68154,12.5164 3e-5,-25.0322 -3e-5,-25.03225 v -25.03219 z"
       id="path970"
       inkscape:connector-curvature="0" />
    <path
       inkscape:connector-curvature="0"
       id="path974"
       d="m 326.57137,977.92578 -5.3e-4,-25.0325 2.6e-4,-25.0323 21.68102,-12.51612 21.68098,-12.5161 21.68075,12.5162 21.68154,12.51642 -21.68098,12.5161 -21.68105,12.5162 -21.68098,12.516 z"
       style="fill:#9d9d9d;fill-opacity:1;stroke:#000000;stroke-width:2.52722;stroke-linejoin:bevel;stroke-miterlimit:4;stroke-dasharray:none;stroke-dashoffset:0;stroke-opacity:1" />
    <path
       style="fill:#9d9d9d;fill-opacity:1;stroke:#000000;stroke-width:2.56734;stroke-linejoin:bevel;stroke-miterlimit:4;stroke-dasharray:none;stroke-dashoffset:0;stroke-opacity:1"
       d="m 413.2951,877.79612 -21.68108,12.51675 -21.68125,12.51589 -21.68098,-12.51609 -21.68102,-12.51609 3e-4,-25.03199 -3e-5,-25.03289 21.68101,12.5161 21.68098,12.51613 21.68102,12.51609 z"
       id="path980"
       inkscape:connector-curvature="0" />
    <path
       style="fill:#1d1d1d;fill-opacity:1;stroke:none;stroke-width:2.52691;stroke-linecap:butt;stroke-linejoin:miter;stroke-miterlimit:4;stroke-dasharray:none;stroke-opacity:1"
       d="m 326.57137,977.92578 -43.77398,-25.0326 43.77371,-25.0322 z"
       id="path1070"
       inkscape:connector-curvature="0" />
    <path
       inkscape:connector-curvature="0"
       id="path1072"
       d="m 413.70682,927.86128 -43.77405,-25.03252 43.77372,-25.03215 z"
       style="fill:#1d1d1d;fill-opacity:1;stroke:none;stroke-width:2.52691;stroke-linecap:butt;stroke-linejoin:miter;stroke-miterlimit:4;stroke-dasharray:none;stroke-opacity:1" />
    <path
       style="fill:#1d1d1d;fill-opacity:1;stroke:none;stroke-width:2.52691;stroke-linecap:butt;stroke-linejoin:miter;stroke-miterlimit:4;stroke-dasharray:none;stroke-opacity:1"
       d="M 326.57143,877.79687 282.79739,852.76432 326.5711,827.73216 Z"
       id="path1074"
       inkscape:connector-curvature="0" />
    <path
       style="fill:#bfbfbf;fill-opacity:1;stroke:#000000;stroke-width:2.27732;stroke-linejoin:bevel;stroke-opacity:1"
       d="m 516.83299,828.01775 115.57739,10e-4 28.89326,50.03953 -57.78881,100.0817 -57.7871,4e-4 -57.7897,-100.08106 z"
       id="path1029" />
    <path
       id="path1003"
       style="fill:#7a7a7a;fill-opacity:1;stroke:#000000;stroke-width:2.15207;stroke-linejoin:bevel;stroke-miterlimit:4;stroke-dasharray:none;stroke-dashoffset:0;stroke-opacity:1"
       d="m 531.98333,847.69743 -10.65928,18.4599 -10.65919,18.46134 10.65919,18.45989 10.65928,18.46137 10.6592,18.45985 10.66068,18.4614 h 21.3184 21.31707 l 10.6606,-18.4614 10.65928,-18.46134 10.65918,-18.45988 10.65926,-18.45989 -10.65926,-18.45989 -10.65918,-18.45991 -21.31848,-0.001 h -21.31847 -21.31988 z"
       sodipodi:nodetypes="ccccccccccccccccccc" />
    <path
       id="rect993"
       style="fill:#292929;fill-opacity:1;stroke-width:2.27732;stroke-linejoin:bevel"
       d="m 634.28099,919.47467 c 0.1964,-0.34038 -0.46745,-1.08916 -1.4891,-1.6789 l -1.9423,-1.12125 5.15498,-8.92753 -40.06513,-23.12899 -21.31919,36.92166 40.06513,23.12902 5.15487,-8.9275 1.94234,1.1213 c 1.02152,0.5897 2.00207,0.7903 2.19868,0.4498 z"
       sodipodi:nodetypes="ssccccccsss" />
    <path
       sodipodi:nodetypes="ssccccccsss"
       d="m 564.32054,833.98872 c -0.39309,-6e-5 -0.70973,0.94931 -0.70965,2.12882 v 2.2425 h -10.3098 l -2e-5,46.25793 42.63837,3e-5 -4e-5,-46.25796 h -10.3097 l 3e-5,-2.24255 c -3e-5,-1.17943 -0.31653,-2.12881 -0.70977,-2.12881 z"
       style="fill:#292929;fill-opacity:1;stroke-width:2.27732;stroke-linejoin:bevel"
       id="path1013" />
    <path
       id="path1015"
       style="fill:#292929;fill-opacity:1;stroke-width:2.27732;stroke-linejoin:bevel"
       d="m 525.25932,937.31228 c 0.19648,0.3403 1.17705,0.1402 2.19862,-0.4499 l 1.94228,-1.1213 5.1549,8.9276 40.06513,-23.12902 -21.3191,-36.92169 -40.06516,23.12902 5.15484,8.92745 -1.94233,1.12124 c -1.02153,0.58975 -1.68554,1.33853 -1.48892,1.67901 z"
       sodipodi:nodetypes="ssccccccsss" />
    <text
       xml:space="preserve"
       style="font-size:37.4343px;line-height:1.25;font-family:'Open Sans';-inkscape-font-specification:'Open Sans';text-align:center;letter-spacing:0px;word-spacing:0px;writing-mode:lr-tb;text-anchor:middle;stroke-width:1.13866"
       x="572.91504"
       y="872.71393"
       id="text1019"
       transform="scale(1.0000571,0.9999429)"><tspan
         sodipodi:role="line"
         id="tspan1017"
         x="572.91504"
         y="872.71393"
         style="font-style:normal;font-variant:normal;font-weight:800;font-stretch:normal;font-size:37.4343px;font-family:'Open Sans';-inkscape-font-specification:'Open Sans Ultra-Bold';fill:#ffffff;fill-opacity:1;stroke-width:1.13866">R</tspan></text>
    <text
       id="text1023"
       y="502.87225"
       x="980.77509"
       style="font-size:37.4343px;line-height:1.25;font-family:'Open Sans';-inkscape-font-specification:'Open Sans';text-align:center;letter-spacing:0px;word-spacing:0px;writing-mode:lr-tb;text-anchor:middle;stroke-width:1.13866"
       xml:space="preserve"
       transform="matrix(0.86607486,0.49997145,-0.50002855,0.86597595,0,0)"><tspan
         style="font-style:normal;font-variant:normal;font-weight:800;font-stretch:normal;font-size:37.4343px;font-family:'Open Sans';-inkscape-font-specification:'Open Sans Ultra-Bold';fill:#ffffff;fill-opacity:1;stroke-width:1.13866"
         y="502.87225"
         x="980.77509"
         id="tspan1021"
         sodipodi:role="line">P</tspan></text>
    <text
       xml:space="preserve"
       style="font-size:37.4343px;line-height:1.25;font-family:'Open Sans';-inkscape-font-specification:'Open Sans';text-align:center;letter-spacing:0px;word-spacing:0px;writing-mode:lr-tb;text-anchor:middle;stroke-width:1.13866"
       x="13.18742"
       y="1077.4597"
       id="text1027"
       transform="matrix(0.86607486,-0.49997145,0.50002855,0.86597595,0,0)"><tspan
         sodipodi:role="line"
         id="tspan1025"
         x="13.18742"
         y="1077.4597"
         style="font-style:normal;font-variant:normal;font-weight:800;font-stretch:normal;font-size:37.4343px;font-family:'Open Sans';-inkscape-font-specification:'Open Sans Ultra-Bold';fill:#ffffff;fill-opacity:1;stroke-width:1.13866">D</tspan></text>
  </g>
</svg>
