<?xml version="1.0" encoding="UTF-8" standalone="no"?>
<svg
   width="12in"
   height="12in"
   viewBox="0 0 304.8 304.80001"
   version="1.1"
   id="svg1888"
   inkscape:version="1.1 (c68e22c387, 2021-05-23)"
   sodipodi:docname="FTC4366-back.svg"
   xmlns:inkscape="http://www.inkscape.org/namespaces/inkscape"
   xmlns:sodipodi="http://sodipodi.sourceforge.net/DTD/sodipodi-0.dtd"
   xmlns="http://www.w3.org/2000/svg"
   xmlns:svg="http://www.w3.org/2000/svg"
   xmlns:rdf="http://www.w3.org/1999/02/22-rdf-syntax-ns#"
   xmlns:cc="http://creativecommons.org/ns#"
   xmlns:dc="http://purl.org/dc/elements/1.1/">
  <defs
     id="defs1882">
    <clipPath
       id="clipPath3826"
       clipPathUnits="userSpaceOnUse">
      <path
         inkscape:connector-curvature="0"
         id="path3824"
         d="M 0,108.455 H 339.56 V 0 H 0 Z" />
    </clipPath>
    <clipPath
       id="clipPath3846"
       clipPathUnits="userSpaceOnUse">
      <path
         inkscape:connector-curvature="0"
         id="path3844"
         d="M 0,108.455 H 339.56 V 0 H 0 Z" />
    </clipPath>
  </defs>
  <sodipodi:namedview
     id="base"
     pagecolor="#ffffff"
     bordercolor="#666666"
     borderopacity="1.0"
     inkscape:pageopacity="0"
     inkscape:pageshadow="2"
     inkscape:zoom="0.7"
     inkscape:cx="597.14286"
     inkscape:cy="507.14286"
     inkscape:document-units="in"
     inkscape:current-layer="layer1"
     showgrid="false"
     units="in"
     inkscape:snap-page="true"
     inkscape:pagecheckerboard="false"
     inkscape:window-width="1920"
     inkscape:window-height="1043"
     inkscape:window-x="0"
     inkscape:window-y="217"
     inkscape:window-maximized="1"
     inkscape:snap-bbox="true"
     inkscape:bbox-paths="true"
     inkscape:bbox-nodes="true"
     inkscape:snap-bbox-edge-midpoints="true"
     inkscape:document-rotation="0"
     inkscape:snap-global="false" />
  <metadata
     id="metadata1885">
    <rdf:RDF>
      <cc:Work
         rdf:about="">
        <dc:format>image/svg+xml</dc:format>
        <dc:type
           rdf:resource="http://purl.org/dc/dcmitype/StillImage" />
      </cc:Work>
    </rdf:RDF>
  </metadata>
  <g
     inkscape:label="Layer 1"
     inkscape:groupmode="layer"
     id="layer1"
     transform="translate(0,7.8000169)">
    <path
       inkscape:connector-curvature="0"
       id="path18693"
       d="m 143.96065,171.21489 -0.14039,-0.10645 v -3.29467 -3.2947 l 0.17824,-0.12476 0.17823,-0.12477 h 1.62617 1.62617 v -10.70611 -10.70611 h -0.0299 -0.0299 l -0.78336,1.54377 -0.78332,1.54377 -0.27569,0.52128 -0.27569,0.52125 -0.14843,0.2807 -0.14844,0.28067 -0.73059,1.47934 -0.73057,1.47936 -0.0747,0.0901 -0.0747,0.0901 -0.52346,1.04903 -0.52348,1.04902 v 0.048 0.0479 h 0.91653 0.91652 l 0.1261,0.12595 0.12596,0.12596 v 3.07606 3.07608 l -0.12596,0.1261 -0.1261,0.12596 h -5.76263 -5.76263 l -0.1261,-0.12596 -0.12596,-0.1261 -0.003,-0.0543 -0.003,-0.0543 -0.004,-3.04432 -0.004,-3.04432 0.14144,-0.10332 0.14129,-0.10333 h 1.39668 1.39667 l -0.0567,-0.1404 -0.0567,-0.14039 -0.14397,-0.56137 -0.14397,-0.56137 -0.13087,-0.44107 -0.13087,-0.4411 -0.1624,-0.60144 -0.16241,-0.60148 -0.0682,-0.28067 -0.0682,-0.28068 -0.0865,-0.2406 -0.0865,-0.24059 -0.11627,-0.48115 -0.11613,-0.48118 -0.11673,-0.40099 -0.11672,-0.40096 -0.17756,-0.64157 -0.17756,-0.64155 -0.11375,-0.40101 -0.11375,-0.40097 -0.12253,-0.40096 -0.12253,-0.40098 -0.11151,-0.44108 -0.11167,-0.44108 -0.17109,-0.56136 -0.17112,-0.56138 -0.10704,-0.48116 -0.10705,-0.48119 -0.0807,-0.24058 -0.0807,-0.24057 -0.12536,-0.44108 -0.12536,-0.44109 -0.11301,-0.44108 -0.113,-0.44106 -0.13325,-0.44108 -0.13325,-0.44107 -0.10303,-0.4411 -0.10303,-0.44105 -0.10362,-0.32077 -0.10377,-0.32079 -0.10392,-0.3208 -0.10392,-0.32077 -0.0514,-0.2807 -0.0515,-0.28068 -0.12164,-0.40097 -0.12179,-0.40099 -0.0796,-0.24057 -0.0798,-0.24059 -0.1139,-0.48118 -0.11389,-0.48115 -0.15517,-0.5614 -0.15518,-0.56136 -0.13117,-0.44107 -0.13117,-0.44107 -0.15807,-0.56138 -0.15807,-0.56136 -0.10719,-0.44108 -0.1072,-0.44107 -0.0883,-0.22054 -0.0883,-0.22054 h -1.1701 -1.1701 l -0.15511,-0.0831 -0.15512,-0.0831 v -2.5988 -2.59879 l -0.0803,-0.0496 -0.0801,-0.0496 v -0.7184 -0.71839 l 6.57899,0.0213 6.57897,0.0216 0.0761,0.1203 0.0761,0.12029 10e-4,3.03136 0.001,3.03136 -0.11732,0.22689 -0.11747,0.2269 -0.12983,0.0499 -0.12968,0.0499 h -1.5588 -1.55877 l 0.0472,0.22053 0.0472,0.22055 0.10764,0.32077 0.10764,0.32079 0.16995,0.60144 0.16994,0.6015 0.15506,0.52127 0.15503,0.52126 0.11613,0.40097 0.11628,0.40097 0.24545,0.80195 0.24545,0.80197 0.11703,0.44106 0.11702,0.44109 0.13131,0.44108 0.13132,0.44108 0.14486,0.52128 0.14487,0.52125 0.13504,0.36088 0.13503,0.36088 0.11896,0.48117 0.11896,0.48118 0.19416,0.60146 0.19417,0.60147 0.17054,0.60148 0.17053,0.60146 0.10273,0.32079 0.10273,0.32078 0.18723,0.61815 0.18725,0.61815 0.0435,-0.0399 0.0435,-0.0399 0.45139,-0.85892 0.45139,-0.85893 0.68008,-1.32324 0.68009,-1.32322 0.28075,-0.52127 0.28074,-0.52127 0.22033,-0.44109 0.22033,-0.44105 0.13132,-0.28069 0.13131,-0.28068 0.16075,-0.23832 0.16074,-0.23834 0.77046,-1.52597 0.77047,-1.52599 0.6418,-1.24303 0.64182,-1.24302 0.49907,-0.9423 0.49906,-0.9423 h -1.08932 -1.08936 l -0.16039,-0.16039 -0.16038,-0.16038 v -3.07911 -3.07895 l 0.12685,-0.0487 0.12685,-0.0487 h 7.40497 7.40498 l 0.12685,0.0487 0.12685,0.0487 v 3.11334 3.1133 l -0.12611,0.12596 -0.1261,0.12595 h -1.3936 -1.3936 l 0.12119,0.30073 0.12119,0.30072 0.11524,0.25273 0.11524,0.2527 v 0.0816 0.0816 l 0.11657,0.22703 0.11658,0.22706 0.29583,0.76186 0.29583,0.76184 0.14892,0.33645 0.14891,0.33641 v 0.0782 0.0782 l 0.11926,0.22705 0.11925,0.22705 0.16145,0.37651 0.16147,0.37654 v 0.0782 0.0782 l 0.11345,0.22703 0.1133,0.22705 0.12164,0.28066 0.12163,0.28072 0.17841,0.48117 0.17842,0.48117 0.13385,0.32078 0.13385,0.32077 0.14456,0.36088 0.14457,0.36089 0.1066,0.24058 0.1066,0.24058 0.20831,0.56137 0.2083,0.56138 0.0716,0.16038 0.0716,0.16041 0.16477,0.37652 0.16477,0.37653 v 0.049 0.049 l 0.16618,0.37651 0.16618,0.37654 0.1145,0.25269 0.11449,0.25271 v 0.0816 0.0816 l 0.11762,0.227 0.11776,0.22705 0.20868,0.56138 0.20863,0.56137 0.12119,0.28068 0.12119,0.28067 0.10958,0.24021 0.10958,0.24017 0.2136,-0.48076 0.21364,-0.48078 0.19591,-0.5805 0.19591,-0.5805 0.11553,-0.22145 0.11553,-0.22148 3.2e-4,-0.0662 2.9e-4,-0.0662 0.2731,-0.65547 0.2731,-0.65546 0.17652,-0.48119 0.17654,-0.48115 0.10169,-0.24059 0.10169,-0.24059 0.14456,-0.36091 0.14457,-0.36086 0.1462,-0.33643 0.14621,-0.33644 0.001,-0.0645 0.001,-0.0646 0.39996,-0.99182 0.4,-0.99183 v -0.075 -0.075 l 0.16475,-0.37653 0.16479,-0.37652 0.0725,-0.1604 0.0725,-0.16039 0.36822,-0.96236 0.36822,-0.96234 0.12268,-0.32078 0.12268,-0.32079 0.1139,-0.22703 0.11389,-0.22702 0.003,-0.0938 0.003,-0.0936 0.15494,-0.32079 0.15496,-0.3208 0.003,-0.10794 0.003,-0.10794 0.11003,-0.21287 0.11002,-0.21286 0.12924,-0.30075 0.12923,-0.30072 h -1.83433 -1.83431 l -0.18933,-0.15321 -0.18932,-0.15325 -0.025,-3.21506 -0.025,-3.21507 0.2107,-0.0799 0.21072,-0.0799 h 6.36377 6.36375 l 0.12685,0.0487 0.12685,0.0487 v 3.2737 3.27371 l -0.12611,0.12595 -0.1261,0.12596 h -1.26739 -1.26748 l -0.29059,0.88438 -0.29061,0.8844 v 0.0858 0.0858 l -0.11255,0.2527 -0.11256,0.25271 -0.24292,0.80197 -0.24293,0.80193 -0.0814,0.2406 -0.0814,0.24059 -0.45072,1.44352 -0.45074,1.44351 -0.0801,0.24058 -0.0803,0.24058 -0.20092,0.64157 -0.20094,0.64159 -0.11404,0.26334 -0.11405,0.26338 v 0.15493 0.15494 l -0.11508,0.26338 -0.11509,0.26334 -0.20122,0.64157 -0.20123,0.64157 -0.0792,0.24059 -0.0792,0.24058 -0.32067,1.04251 -0.32065,1.04258 -0.16271,0.52125 -0.16269,0.52128 -0.1977,0.56136 -0.19768,0.56137 -0.17161,0.60148 -0.17161,0.60144 -0.10615,0.28071 -0.10601,0.28069 -0.29644,0.96233 -0.29643,0.96234 -0.20398,0.60147 -0.20397,0.60148 -0.14442,0.52126 -0.14442,0.52127 -0.32649,0.98476 -0.32648,0.98475 v 0.11807 0.11806 h 0.76185 0.76185 l 0.1604,0.16039 0.16039,0.1604 v 3.00735 3.0073 l -0.16039,0.1604 -0.1604,0.1604 h -5.45341 -5.4533 l -0.16038,-0.1604 -0.16041,-0.1604 v -3.0073 -3.00735 l 0.16041,-0.1604 0.16038,-0.16039 h 0.81064 0.81066 l -0.05,-0.19883 -0.05,-0.19888 -0.23019,-0.39041 -0.23019,-0.39038 -0.0587,-0.18483 -0.0587,-0.18479 -0.23129,-0.39231 -0.23134,-0.3923 v -0.0487 -0.0487 l -0.71643,-1.45139 -0.71641,-1.45138 -1.00771,-2.045 -1.00772,-2.04498 -0.0791,-0.1203 -0.079,-0.1203 -0.001,10.64597 -0.001,10.64596 h 8.30087 8.30024 v -1.55807 -1.5581 l 0.1261,-0.12596 0.12596,-0.1261 h 3.1331 3.13309 l 0.10661,0.14039 0.10645,0.1404 0.003,4.83752 0.003,4.8375 -0.11464,0.11464 -0.11464,0.11464 -17.38812,-0.003 -17.38811,-0.003 z"
       style="fill:#000000;fill-opacity:1;stroke:none;stroke-width:0.706191;stroke-opacity:1" />
    <g
       id="g982"
       transform="matrix(0.89294716,0,0,0.89294716,16.314853,23.660274)"
       style="fill:#000000;fill-opacity:1">
      <path
         inkscape:connector-curvature="0"
         id="path888"
         d="m 88.338466,223.69096 c 0,-0.0662 0.05446,-0.12032 0.12092,-0.12032 0.06654,0 0.120967,-0.24463 0.120967,-0.54343 v -0.54342 h 0.534791 c 0.966127,0 0.914321,0.34551 0.914321,-6.09841 0,-6.44395 0.05181,-6.09844 -0.914321,-6.09844 h -0.534819 v -0.66415 -0.6642 h 3.367408 c 3.408404,0 3.667174,0.0259 4.975875,0.50313 0.501587,0.18273 1.405724,1.07756 1.736681,1.71875 0.26637,0.51598 0.305367,0.74459 0.305367,1.78912 0,1.10751 -0.0306,1.26276 -0.406797,2.06512 -0.867024,1.84918 -2.371295,2.61863 -5.119215,2.61863 -1.393462,0 -1.357271,-0.0644 -1.357271,2.41522 0,2.46069 -0.02425,2.41523 1.276597,2.41523 h 0.897067 v 0.54342 c 0,0.2989 0.05428,0.54343 0.120957,0.54343 0.06654,0 0.120939,0.0542 0.120939,0.12032 0,0.0774 -1.106928,0.1208 -3.079354,0.1208 -1.972407,0 -3.079353,-0.0434 -3.079353,-0.1208 z m 6.536014,-7.55239 c 1.172774,-0.4128 2.037898,-1.70335 2.037898,-3.03993 0,-1.12053 -0.896954,-2.31237 -1.983058,-2.6349 -0.823886,-0.2446 -2.407804,-0.23713 -2.657544,0.0111 -0.283578,0.28355 -0.283578,5.37494 0,5.65847 0.255452,0.25546 1.880951,0.25781 2.602704,7.7e-4 z m 6.02298,7.55239 c 0,-0.0662 0.0542,-0.12032 0.12095,-0.12032 0.0665,0 0.12094,-0.27173 0.12094,-0.6038 v -0.60381 h 0.53481 c 0.96613,0 0.91431,0.34553 0.91431,-6.0984 0,-6.44396 0.0518,-6.09846 -0.91431,-6.09846 h -0.53479 v -0.66415 -0.6642 h 5.07197 5.07194 v 1.5699 1.56991 h -0.66421 -0.66418 v -0.71598 c 0,-1.10496 0.0232,-1.09548 -2.65672,-1.09548 -1.90913,0 -2.30786,0.0306 -2.46695,0.18973 -0.28205,0.28204 -0.28205,4.53114 0,4.81319 0.15356,0.15362 0.49742,0.18969 1.80277,0.18969 1.8696,0 1.99257,-0.0565 1.99257,-0.91429 v -0.53478 h 0.66415 0.66418 v 2.05294 2.05291 h -0.66418 -0.66415 v -0.53479 c 0,-0.8579 -0.12295,-0.91437 -1.99257,-0.91437 -1.30535,0 -1.64921,0.0361 -1.80277,0.18974 -0.28317,0.2832 -0.28317,5.13377 0,5.41699 0.14414,0.14444 0.44881,0.18971 1.26796,0.18971 h 1.07822 v 0.6038 c 0,0.33206 0.0543,0.60377 0.12065,0.60377 0.0665,0 0.12081,0.0543 0.12081,0.12033 0,0.0774 -1.16736,0.12064 -3.26052,0.12064 -2.09318,0 -3.26054,-0.0431 -3.26054,-0.12064 z m 12.31758,0 c 0,-0.0662 0.0543,-0.12032 0.12095,-0.12032 0.0666,0 0.12095,-0.24463 0.12095,-0.54343 v -0.54342 h 0.5348 c 0.91478,0 0.91431,7.7e-4 0.91431,-3.12889 0,-4.90757 -0.1385,-8.5852 -0.33012,-8.77704 -0.0936,-0.0934 -0.38364,-0.17003 -0.64457,-0.17003 h -0.47442 v -0.72456 -0.72454 h 3.25458 c 3.45543,0 4.14635,0.076 5.11239,0.56265 1.55515,0.7833 1.9547,1.5995 1.87442,3.82873 -0.0418,1.16375 -0.0916,1.42802 -0.36917,1.96341 -0.83573,1.61221 -2.66011,2.44728 -5.04892,2.31106 -0.85549,-0.0491 -1.13004,-0.0232 -1.26707,0.11302 -0.13957,0.13941 -0.17478,0.6018 -0.17478,2.27104 0,2.54343 -0.0366,2.4756 1.33703,2.4756 h 0.95744 v 0.54344 c 0,0.29886 0.0543,0.54339 0.12096,0.54339 0.0666,0 0.12064,0.0543 0.12064,0.1208 0,0.0774 -1.10692,0.12081 -3.0794,0.12081 -1.9724,0 -3.07934,-0.0434 -3.07934,-0.12081 z m 6.54878,-7.56489 c 0.68757,-0.26468 1.59496,-1.15136 1.76745,-1.72717 0.18818,-0.62786 0.17193,-1.86506 -0.0301,-2.335 -0.24178,-0.56141 -1.13667,-1.37525 -1.74978,-1.59121 -0.72161,-0.25414 -2.34718,-0.25183 -2.60276,0.004 -0.16114,0.16115 -0.1897,0.59069 -0.1897,2.82922 0,2.23852 0.0289,2.66831 0.1897,2.82924 0.2649,0.26489 1.91908,0.25933 2.61547,-0.008 z M 88.096946,204.97312 c 0,-0.48308 0.05181,-0.84533 0.120948,-0.84533 0.06654,0 0.120938,0.0543 0.120938,0.12078 0,0.08 6.037997,0.1208 17.872468,0.1208 11.8345,0 17.87254,-0.0411 17.87254,-0.1208 0,-0.0665 0.0542,-0.12078 0.12093,-0.12078 0.15794,0 0.15794,1.53246 0,1.63026 -0.0664,0.0411 -0.12093,0.0154 -0.12093,-0.0533 0,-0.0894 -5.37402,-0.12798 -17.87254,-0.12798 -11.834471,0 -17.872468,0.0411 -17.872468,0.12065 0,0.0662 -0.05419,0.1208 -0.120938,0.1208 -0.06901,0 -0.120948,-0.36228 -0.120948,-0.84531 z m 0.172058,-6.27954 c 0,-1.42802 0.0173,-2.01217 0.0389,-1.29818 0.02133,0.71396 0.02133,1.88235 0,2.59634 -0.0216,0.71401 -0.0389,0.12964 -0.0389,-1.29816 z m 0.190227,0.0111 v -2.28363 l 1.841547,-0.05 c 1.559205,-0.0425 2.008288,-0.10008 2.928457,-0.37636 1.956515,-0.58751 3.309736,-1.40606 4.658647,-2.81798 1.118374,-1.17056 1.584291,-1.86399 2.500608,-3.72152 0.92822,-1.88159 1.61683,-3.93038 2.31338,-6.88293 0.14108,-0.59773 0.30899,-1.25372 0.37321,-1.45766 0.0643,-0.20391 0.11686,-0.49655 0.11686,-0.6502 0,-0.39002 0.25871,-1.21303 0.38136,-1.21303 0.0559,0 0.10155,4.89079 0.10155,10.86842 v 10.86849 h -7.607886 -7.607852 z m 17.268659,-8.64523 c 0,-7.20538 -0.0413,-10.92883 -0.12095,-10.92883 -0.0664,0 -0.12096,-0.0543 -0.12096,-0.1208 0,-0.067 0.32202,-0.1208 0.72456,-0.1208 0.40252,0 0.72457,0.0533 0.72457,0.1208 0,0.0662 -0.0542,0.1208 -0.12081,0.1208 -0.0798,0 -0.12096,3.72345 -0.12096,10.92883 v 10.9288 h -0.48302 -0.48304 z m 3.01899,0.0603 c 0,-6.2399 0.0455,-10.86841 0.10712,-10.86841 0.0586,0 0.16997,0.36679 0.24701,0.81513 0.0768,0.4483 0.18836,1.00535 0.24759,1.2378 0.0595,0.2325 0.17162,0.69439 0.24987,1.02647 0.0783,0.33208 0.21846,0.87552 0.31161,1.20758 0.0931,0.33209 0.30522,1.08853 0.47123,1.68096 1.08248,3.86285 2.49389,6.40682 4.71533,8.49901 0.71941,0.67754 1.3702,1.23188 1.44626,1.23188 0.076,0 0.40212,0.14016 0.72472,0.31182 0.32257,0.17167 1.07787,0.47699 1.67843,0.6788 0.98031,0.32946 1.28659,0.37313 2.99401,0.42718 l 1.90194,0.0602 v 2.27999 2.28005 h -7.54757 -7.5475 z m -5.28095,-11.07288 c 0.11744,-0.0306 0.28051,-0.0286 0.36228,0.004 0.0818,0.033 -0.0137,0.0583 -0.21366,0.0558 -0.19924,-7.7e-4 -0.26615,-0.0297 -0.14872,-0.0602 z m 5.19269,0 c 0.11759,-0.0306 0.28055,-0.0286 0.36229,0.004 0.0818,0.033 -0.0137,0.0583 -0.21364,0.0558 -0.19922,-7.7e-4 -0.26616,-0.0297 -0.14871,-0.0602 z"
         style="fill:#000000;fill-opacity:1;stroke:none;stroke-width:0.884329;stroke-opacity:1" />
      <path
         inkscape:connector-curvature="0"
         id="path3742"
         d="m 214.44411,221.13611 c -0.2474,-0.0193 -0.52572,-0.0667 -0.61849,-0.10523 -0.91294,-0.37976 -1.31429,-0.77389 -1.63191,-1.6027 -0.15403,-0.40191 -0.15628,-1.60829 -0.004,-2.05224 0.45194,-1.31607 1.72023,-1.99912 3.29552,-1.77485 0.56059,0.0798 1.16919,0.27662 1.21364,0.39245 0.0144,0.0377 -0.0125,0.14273 -0.0596,0.23346 -0.0472,0.0907 -0.0862,0.19272 -0.0864,0.22663 -4.2e-4,0.059 -0.12413,0.3519 -0.22358,0.52872 -0.0547,0.0976 -0.0231,0.10245 -0.55024,-0.0845 -0.45699,-0.16196 -0.96372,-0.19461 -1.35569,-0.0872 -0.33069,0.0905 -0.74458,0.50583 -0.86953,0.87253 -0.1182,0.34692 -0.12129,0.99756 -0.005,1.33491 0.10196,0.29922 0.41395,0.68499 0.65461,0.80945 0.42246,0.21847 1.22453,0.18897 1.76083,-0.0646 0.17214,-0.0815 0.34598,-0.13542 0.38629,-0.11995 0.0404,0.0156 0.10493,0.18858 0.14356,0.38468 0.0387,0.19609 0.0942,0.43245 0.12346,0.52522 0.0446,0.14131 0.0342,0.1841 -0.0635,0.26367 -0.29134,0.23712 -1.26837,0.38527 -2.10867,0.31973 z m -22.66538,-0.12665 c -0.88995,-0.33081 -1.37499,-0.83037 -1.63948,-1.68851 -0.12698,-0.412 -0.12281,-1.42374 0.008,-1.86067 0.18547,-0.62111 0.56472,-1.13671 1.07585,-1.4627 0.58561,-0.37347 1.43458,-0.52354 2.24904,-0.39753 0.5111,0.0791 1.12098,0.27355 1.18557,0.37805 0.0337,0.0545 -0.28495,0.98452 -0.36914,1.07754 -0.0225,0.0248 -0.18898,-0.0226 -0.36997,-0.10534 -0.38325,-0.17531 -1.09114,-0.24461 -1.46392,-0.14332 -0.36915,0.10032 -0.66576,0.35259 -0.84593,0.71948 -0.14079,0.28677 -0.16072,0.3902 -0.16047,0.83343 2.3e-4,0.40852 0.0252,0.56021 0.12953,0.78716 0.26375,0.57373 0.55987,0.76246 1.25724,0.8014 0.50009,0.0279 0.9735,-0.0674 1.26919,-0.25562 0.0694,-0.044 0.16074,-0.0669 0.20311,-0.0506 0.0647,0.0248 0.31773,0.88924 0.31749,1.08473 -5e-5,0.0341 -0.0949,0.10329 -0.21091,0.15409 -0.43538,0.19071 -0.87252,0.26212 -1.58614,0.25916 -0.59014,-0.002 -0.76109,-0.0238 -1.04874,-0.13068 z m 5.82569,0.044 c -0.74799,-0.24926 -1.3041,-0.71859 -1.60497,-1.35457 -0.3128,-0.66121 -0.35305,-1.66561 -0.0953,-2.3791 0.43975,-1.21753 1.64731,-1.90214 3.05589,-1.73254 1.13349,0.13648 1.90391,0.74213 2.24399,1.76412 0.17039,0.51198 0.17135,1.47429 0.002,1.95994 -0.30293,0.86861 -0.89797,1.43894 -1.81835,1.74297 -0.35588,0.11754 -1.4295,0.11706 -1.78322,-5.7e-4 z m 1.42048,-1.09092 c 0.45825,-0.17144 0.71578,-0.48073 0.86413,-1.03773 0.19459,-0.73067 -0.0302,-1.60508 -0.50237,-1.95392 -0.29037,-0.21453 -0.47083,-0.26959 -0.88355,-0.26959 -0.44493,0 -0.70798,0.11183 -0.98384,0.41829 -0.28488,0.31646 -0.38067,0.67806 -0.35514,1.3406 0.0196,0.50671 0.0417,0.61011 0.18759,0.87643 0.18985,0.34643 0.42716,0.54818 0.7712,0.65559 0.34043,0.10631 0.55765,0.0992 0.90198,-0.0296 z m -21.49316,0.96214 c 0,-0.0582 0.0916,-0.3556 0.2035,-0.66065 0.1119,-0.30505 0.26371,-0.72544 0.33736,-0.93417 0.0736,-0.20874 0.1971,-0.55664 0.27442,-0.77312 0.0772,-0.21647 0.20083,-0.56436 0.2745,-0.77309 0.24854,-0.70424 0.49385,-1.38969 0.61875,-1.72896 l 0.12419,-0.33736 0.85201,-0.0156 c 0.9828,-0.0179 0.86496,-0.09 1.1289,0.69023 0.0941,0.27831 0.31326,0.91085 0.48692,1.40564 0.17364,0.49479 0.37557,1.07672 0.44874,1.2932 0.0731,0.21647 0.2393,0.68456 0.3692,1.04018 0.36505,0.99939 0.4043,0.89962 -0.35394,0.89962 -0.44859,0 -0.66403,-0.0215 -0.70432,-0.0703 -0.0319,-0.0387 -0.12316,-0.25697 -0.20277,-0.48511 -0.0795,-0.22817 -0.17354,-0.44957 -0.20874,-0.492 -0.0881,-0.10623 -1.86488,-0.1125 -1.94571,-0.006 -0.0296,0.0387 -0.11172,0.2474 -0.18251,0.46385 -0.20778,0.63528 -0.14118,0.59037 -0.87587,0.59037 -0.59408,0 -0.64463,-0.008 -0.64463,-0.10598 z m 3.28927,-2.1431 c 0.0191,-0.0309 -0.0264,-0.23972 -0.101,-0.46387 -0.0746,-0.22416 -0.20736,-0.62951 -0.29484,-0.90077 -0.0875,-0.27126 -0.18184,-0.48561 -0.2097,-0.47633 -0.0279,0.009 -0.17171,0.37378 -0.31966,0.80998 -0.14795,0.4362 -0.2872,0.82254 -0.30943,0.85853 -0.0222,0.0361 -0.0264,0.10221 -0.009,0.14712 0.0245,0.0642 0.15726,0.0815 0.62016,0.0815 0.33243,0 0.60398,-0.0244 0.62362,-0.0563 z m 3.59606,2.17882 c -0.0148,-0.0387 -0.0202,-1.23415 -0.0123,-2.65667 l 0.0146,-2.5864 1.23698,-0.0168 c 0.76723,-0.0103 1.36436,0.008 1.57245,0.0474 1.2216,0.234 1.8143,1.33098 1.29388,2.39469 -0.1373,0.28059 -0.24885,0.39025 -0.77835,0.76499 -0.0991,0.0702 -0.0839,0.11109 0.27575,0.74727 0.20932,0.37018 0.4526,0.79361 0.54059,0.94098 0.26125,0.43747 0.2573,0.44081 -0.49717,0.42263 l -0.65715,-0.0159 -0.48141,-0.79886 c -0.26479,-0.43936 -0.51315,-0.83039 -0.55194,-0.86891 -0.0824,-0.0818 -0.45324,-0.0696 -0.5593,0.0186 -0.0538,0.0446 -0.0729,0.27481 -0.0729,0.869 v 0.80838 h -0.64835 c -0.46684,0 -0.65593,-0.0197 -0.67532,-0.0703 z m 2.26024,-2.75506 c 0.48677,-0.12986 0.73008,-0.55575 0.55579,-0.97292 -0.12253,-0.29324 -0.32061,-0.38664 -0.88806,-0.41868 -0.28082,-0.0158 -0.52099,-0.005 -0.55104,0.0253 -0.0581,0.0582 -0.0743,1.20359 -0.0191,1.34763 0.0427,0.11145 0.51778,0.12127 0.90244,0.0186 z m 16.12638,2.75698 c -0.0151,-0.0397 -0.021,-1.23607 -0.0131,-2.65859 l 0.0147,-2.5864 0.71397,-0.0158 0.71398,-0.0158 0.11391,0.1563 c 0.0627,0.0859 0.3405,0.51051 0.61738,0.94345 1.24458,1.94591 1.42795,2.21715 1.47793,2.18626 0.0292,-0.0181 0.0477,-0.11254 0.0412,-0.20995 -0.005,-0.0974 -0.008,-0.82861 -0.004,-1.62491 l 0.008,-1.44782 h 0.61247 c 0.50662,0 0.61837,0.0154 0.6466,0.089 0.0446,0.11616 0.0446,5.04744 0,5.16361 -0.0286,0.0748 -0.14993,0.089 -0.75962,0.089 h -0.7255 l -0.52318,-0.80122 c -0.28777,-0.44068 -0.74929,-1.16099 -1.02557,-1.60072 -0.27629,-0.43972 -0.53358,-0.80025 -0.57176,-0.80122 -0.0531,-6.6e-4 -0.0729,0.37104 -0.0843,1.58666 l -0.0149,1.58838 -0.60544,0.0159 c -0.45295,0.0119 -0.61245,-0.002 -0.63315,-0.0562 z m 6.46527,-0.002 c -0.0148,-0.0387 -0.0202,-1.23417 -0.0123,-2.65668 l 0.0146,-2.58639 0.66066,-0.0158 0.66065,-0.0158 v 2.67254 2.67252 h -0.64836 c -0.46683,0 -0.6559,-0.0197 -0.6753,-0.0703 z m -21.9539,-10.87549 c -0.13916,-0.08 -0.32901,-0.18645 -0.42191,-0.23659 -0.0929,-0.0502 -0.24484,-0.14176 -0.3376,-0.2036 -0.25626,-0.17083 -0.37243,-0.23913 -0.61802,-0.36328 -0.12371,-0.0626 -0.33876,-0.18133 -0.47792,-0.26397 -0.13917,-0.0827 -0.32892,-0.19495 -0.4217,-0.24956 -0.2538,-0.14944 -1.47311,-0.84937 -1.71687,-0.9856 -0.11753,-0.0657 -0.28534,-0.16987 -0.37292,-0.23158 -0.0876,-0.0617 -0.21164,-0.12843 -0.27568,-0.14827 -0.0641,-0.0199 -0.24114,-0.1165 -0.39358,-0.21477 -0.15244,-0.0983 -0.35305,-0.21995 -0.44581,-0.27038 -0.0928,-0.0503 -0.26991,-0.15029 -0.3936,-0.2219 -0.12369,-0.0716 -0.31346,-0.17917 -0.4217,-0.23903 -0.10824,-0.06 -0.3233,-0.18365 -0.47791,-0.27512 -0.15463,-0.0915 -0.33174,-0.19197 -0.39358,-0.22336 -0.0618,-0.0314 -0.16305,-0.088 -0.22492,-0.12565 -0.0618,-0.0378 -0.28955,-0.16822 -0.50603,-0.28995 -0.21647,-0.12174 -0.40201,-0.24157 -0.41232,-0.26632 -0.0102,-0.0248 -0.0408,-0.0449 -0.0677,-0.0449 -0.0268,0 -0.30582,-0.1552 -0.6198,-0.34486 -0.44516,-0.26892 -0.58814,-0.38617 -0.64922,-0.53235 -0.0652,-0.15598 -0.0784,-1.12608 -0.0784,-5.77537 0,-3.71208 0.0195,-5.64262 0.0581,-5.75091 0.0566,-0.15821 0.33181,-0.37605 0.81327,-0.64356 0.66744,-0.37085 1.08939,-0.61056 1.26508,-0.7187 0.10823,-0.0666 0.23475,-0.1378 0.28113,-0.15824 0.0463,-0.0203 0.1223,-0.0678 0.16868,-0.10527 0.0463,-0.0374 0.28676,-0.17684 0.53416,-0.30967 0.24738,-0.13284 0.46296,-0.26119 0.47905,-0.28527 0.016,-0.0242 0.092,-0.0702 0.16868,-0.10252 0.0767,-0.0322 0.24063,-0.12082 0.36433,-0.19668 0.12369,-0.0759 0.37671,-0.21845 0.56225,-0.31689 0.18554,-0.0984 0.37532,-0.20757 0.4217,-0.24257 0.0463,-0.0351 0.13951,-0.0943 0.20694,-0.13193 0.0675,-0.0375 0.54009,-0.30957 1.0504,-0.60444 0.51028,-0.29486 0.95483,-0.53611 0.98787,-0.53611 0.033,0 0.0601,-0.019 0.0604,-0.0421 4.4e-4,-0.0566 0.32556,-0.23896 0.42591,-0.23896 0.0439,0 0.0797,-0.0253 0.0797,-0.0561 0,-0.0309 0.024,-0.0562 0.0534,-0.0562 0.0294,0 0.16589,-0.076 0.30335,-0.16868 0.13746,-0.0928 0.27789,-0.16867 0.31206,-0.16867 0.0342,0 0.0621,-0.0229 0.0621,-0.0507 0,-0.0279 0.0697,-0.0775 0.15463,-0.11022 0.085,-0.0328 0.28111,-0.13606 0.43575,-0.22966 0.15461,-0.0937 0.31909,-0.18794 0.36546,-0.20967 0.0463,-0.0216 0.21596,-0.12326 0.37683,-0.22564 0.16087,-0.10239 0.30591,-0.18615 0.32231,-0.18615 0.0165,0 0.18987,-0.098 0.38549,-0.21768 0.1956,-0.11973 0.41111,-0.2353 0.4789,-0.25682 0.0678,-0.0214 0.12324,-0.0598 0.12324,-0.085 0,-0.0253 0.0443,-0.06 0.0984,-0.0776 0.0542,-0.0173 0.22492,-0.10857 0.37953,-0.20256 0.15462,-0.094 0.31909,-0.19029 0.36547,-0.21401 0.0827,-0.0422 0.70691,-0.39924 1.22708,-0.70171 0.1446,-0.084 0.30086,-0.17101 0.34726,-0.19314 0.0463,-0.0222 0.24291,-0.13678 0.43674,-0.25475 0.19381,-0.11797 0.37726,-0.21448 0.40763,-0.21448 0.0304,0 0.0552,-0.0253 0.0552,-0.0562 0,-0.0309 0.0493,-0.0561 0.10964,-0.0561 0.0603,0 0.12989,-0.0335 0.15462,-0.0745 0.0247,-0.041 0.0828,-0.0908 0.12932,-0.11064 0.0463,-0.02 0.21084,-0.11192 0.36546,-0.20454 0.15462,-0.0926 0.38234,-0.22039 0.50604,-0.28393 0.12369,-0.0636 0.26286,-0.13966 0.30923,-0.16916 0.18312,-0.11644 0.8201,-0.48804 0.89962,-0.52483 0.0463,-0.0214 0.1729,-0.0936 0.28112,-0.16041 0.28842,-0.17794 0.61958,-0.36498 0.8434,-0.47642 0.10825,-0.0539 0.21702,-0.13096 0.24175,-0.17129 0.0248,-0.0404 0.0856,-0.0733 0.13527,-0.0733 0.0496,0 0.16859,-0.0578 0.26427,-0.12842 0.33355,-0.24617 0.81344,-0.35698 0.90492,-0.20895 0.0191,0.0309 0.0737,0.0562 0.12116,0.0562 0.0475,0 0.16485,0.0559 0.26073,0.12416 0.159,0.1132 0.25337,0.16764 0.72858,0.42034 0.085,0.0453 0.15462,0.10567 0.15462,0.13434 0,0.0286 0.0385,0.052 0.0854,0.052 0.047,0 0.17985,0.0588 0.2952,0.13062 0.11535,0.0718 0.24769,0.14802 0.29408,0.16928 0.0463,0.0214 0.16023,0.0888 0.25301,0.1499 0.0928,0.0612 0.20663,0.12863 0.25302,0.14991 0.0463,0.0214 0.097,0.0533 0.11245,0.0708 0.0277,0.0319 0.27955,0.16967 0.80122,0.4387 0.14688,0.0759 0.26707,0.16077 0.26707,0.18893 0,0.0281 0.0506,0.0512 0.11246,0.0512 0.0618,0 0.11245,0.0253 0.11245,0.0561 0,0.0309 0.0348,0.0562 0.0774,0.0562 0.0426,0 0.10895,0.0379 0.14746,0.0843 0.0384,0.0463 0.11749,0.0844 0.17555,0.0844 0.0581,0 0.10556,0.0236 0.10556,0.0524 0,0.0288 0.0567,0.0704 0.12595,0.0924 0.10286,0.0327 0.49968,0.26226 1.11104,0.64291 0.0463,0.0289 0.17288,0.0967 0.28112,0.1507 0.10823,0.0541 0.30166,0.16859 0.42985,0.25458 0.12818,0.086 0.24887,0.15638 0.26819,0.15638 0.0193,0 0.12951,0.0592 0.24487,0.1317 0.11534,0.0724 0.36154,0.21561 0.54708,0.31816 0.18553,0.10257 0.38698,0.21408 0.44764,0.24782 0.10793,0.0601 0.1656,0.10205 0.33521,0.2441 0.0462,0.0387 0.12111,0.0703 0.1666,0.0703 0.0455,0 0.11612,0.033 0.15699,0.0735 0.0408,0.0405 0.11225,0.0902 0.15864,0.11064 0.0463,0.0203 0.21085,0.1125 0.36547,0.20452 0.15462,0.092 0.38866,0.22383 0.52009,0.29291 0.13143,0.0691 0.23895,0.14641 0.23895,0.17186 0,0.0254 0.037,0.0462 0.0824,0.0462 0.0454,0 0.31186,0.13916 0.59235,0.30923 0.28049,0.17009 0.5344,0.30925 0.56424,0.30925 0.0299,0 0.0543,0.0215 0.0543,0.0477 0,0.0263 0.11386,0.0947 0.25302,0.15209 0.13917,0.0575 0.25302,0.1217 0.25302,0.14294 0,0.0214 0.0632,0.0545 0.14057,0.074 0.0772,0.0194 0.14056,0.06 0.14056,0.0904 0,0.0303 0.0279,0.0552 0.062,0.0552 0.0531,0 0.87093,0.46171 1.80842,1.02093 0.14733,0.0879 0.2845,0.1598 0.3048,0.1598 0.0203,0 0.0769,0.0348 0.12567,0.0772 0.0488,0.0426 0.24058,0.16008 0.42612,0.26145 0.18554,0.10135 0.35001,0.19949 0.36547,0.21806 0.0156,0.0187 0.11666,0.0772 0.22491,0.13018 0.25205,0.12352 0.77425,0.42203 0.95583,0.54637 0.0773,0.0529 0.22911,0.13985 0.33736,0.1931 0.10822,0.0533 0.2727,0.14489 0.36548,0.20363 0.0928,0.0587 0.23191,0.14147 0.30924,0.18384 0.0772,0.0425 0.29236,0.16235 0.47791,0.26662 0.18554,0.10426 0.409,0.22912 0.49658,0.27751 0.21385,0.11811 0.29692,0.16681 0.67768,0.3972 0.22397,0.13552 0.35001,0.25583 0.40483,0.38638 0.0668,0.15926 0.0795,1.09073 0.0793,5.81941 -4.4e-4,5.38876 -0.005,5.63655 -0.10468,5.78798 -0.11726,0.17782 -0.31779,0.32232 -0.85079,0.61298 -0.20101,0.10962 -0.45402,0.25331 -0.56227,0.31929 -0.10822,0.0659 -0.24106,0.13522 -0.29518,0.15383 -0.0542,0.0187 -0.0984,0.0561 -0.0984,0.0836 0,0.0272 -0.0361,0.0497 -0.0804,0.0497 -0.0441,0 -0.11482,0.0317 -0.157,0.0703 -0.091,0.0835 -0.2637,0.19657 -0.38116,0.24973 -0.0463,0.021 -0.24293,0.13468 -0.43675,0.25266 -0.19382,0.11797 -0.3671,0.2145 -0.38508,0.2145 -0.0179,0 -0.24762,0.12649 -0.51032,0.28112 -0.26271,0.15463 -0.50029,0.28112 -0.52796,0.28112 -0.0276,0 -0.10122,0.0436 -0.16345,0.0969 -0.0623,0.0533 -0.23333,0.16139 -0.38018,0.2402 -0.14685,0.0788 -0.33026,0.1831 -0.40756,0.23174 -0.24775,0.15589 -1.12541,0.66814 -1.14479,0.66814 -0.0103,0 -0.23132,0.12648 -0.49119,0.28108 -0.25987,0.15459 -0.502,0.2811 -0.53809,0.28113 -0.036,2e-5 -0.074,0.0214 -0.0844,0.0479 -0.0165,0.0419 -0.16539,0.13116 -0.85268,0.51083 -0.0876,0.0483 -0.20144,0.1136 -0.25303,0.14493 -0.0516,0.0313 -0.26433,0.15356 -0.47281,0.27161 -0.20846,0.11808 -0.39338,0.23792 -0.41095,0.26634 -0.0175,0.0285 -0.0779,0.0517 -0.13418,0.0517 -0.0561,0 -0.13376,0.0379 -0.17226,0.0844 -0.12967,0.15625 -0.69039,0.0687 -0.8996,-0.14057 -0.0523,-0.0523 -0.25186,-0.16468 -0.48472,-0.27302 -0.12742,-0.0593 -0.3678,-0.19443 -0.53415,-0.30033 -0.16635,-0.10588 -0.34041,-0.21026 -0.38679,-0.23191 -0.0463,-0.0216 -0.16024,-0.0894 -0.25301,-0.15057 -0.0928,-0.0612 -0.20664,-0.12884 -0.25303,-0.15036 -0.0463,-0.0214 -0.23614,-0.13059 -0.42167,-0.24239 -0.18555,-0.11177 -0.42592,-0.24737 -0.53416,-0.30132 -0.10824,-0.0539 -0.27269,-0.14765 -0.36547,-0.20822 -0.0928,-0.0605 -0.25722,-0.15476 -0.36547,-0.20931 -0.2428,-0.12239 -0.74901,-0.41822 -0.78716,-0.46002 -0.0156,-0.0169 -0.19257,-0.11672 -0.39357,-0.22171 -0.20103,-0.10498 -0.44138,-0.2456 -0.53415,-0.3125 -0.0928,-0.0669 -0.25725,-0.16648 -0.36549,-0.22131 -0.29721,-0.15061 -0.60996,-0.32369 -0.98395,-0.54454 -0.18554,-0.10957 -0.37529,-0.2177 -0.42169,-0.24031 -0.0463,-0.0226 -0.13495,-0.072 -0.19679,-0.10988 -0.0618,-0.0378 -0.27692,-0.16473 -0.47792,-0.28194 -0.20102,-0.1172 -0.46668,-0.27391 -0.59039,-0.34823 -0.28338,-0.17027 -0.44754,-0.17027 -0.73091,4e-5 -0.12371,0.0743 -0.35668,0.2022 -0.51773,0.28412 -0.16105,0.0819 -0.32229,0.18448 -0.35831,0.22787 -0.0361,0.0433 -0.0985,0.0788 -0.13891,0.0788 -0.0405,0 -0.10774,0.0317 -0.14968,0.0703 -0.0683,0.063 -0.37718,0.23864 -0.85947,0.48883 -0.0928,0.0481 -0.1813,0.1037 -0.19679,0.1235 -0.0156,0.0198 -0.12937,0.0907 -0.25307,0.15754 -0.12369,0.0668 -0.26284,0.14478 -0.30924,0.17323 -0.26151,0.16033 -0.83868,0.48979 -0.98395,0.56166 -0.0928,0.046 -0.18134,0.0974 -0.19679,0.11446 -0.0544,0.06 -0.62075,0.39084 -0.6691,0.39084 -0.0268,0 -0.31118,0.16014 -0.6317,0.35582 -0.32053,0.19569 -0.79783,0.475 -1.0607,0.6207 -0.26286,0.14568 -0.52756,0.2955 -0.58824,0.33294 -0.30149,0.18607 -0.7075,0.41904 -1.45774,0.83652 -0.4621,0.25715 -0.68818,0.27127 -1.04644,0.0653 z m 1.01394,-2.09986 c 0.16906,-0.10099 0.39595,-0.24139 0.50416,-0.31195 0.23478,-0.15306 0.71804,-0.42462 1.0683,-0.60031 0.13917,-0.0698 0.2616,-0.14629 0.27205,-0.16995 0.0106,-0.0237 0.12432,-0.0946 0.25301,-0.1577 0.1287,-0.0632 0.36051,-0.18841 0.51511,-0.27854 0.15463,-0.0902 0.31909,-0.18142 0.36547,-0.20287 0.0463,-0.0214 0.16017,-0.0918 0.25283,-0.15634 0.22261,-0.15507 0.5811,-0.35981 0.77331,-0.44164 0.085,-0.0363 0.15461,-0.0856 0.15461,-0.10974 0,-0.0242 0.0506,-0.0439 0.11246,-0.0439 0.0618,0 0.11245,-0.0214 0.11245,-0.0471 0,-0.0259 0.0569,-0.0757 0.12651,-0.11045 0.13562,-0.0678 0.30285,-0.16313 1.3843,-0.78915 0.38256,-0.22144 0.72775,-0.40264 0.7671,-0.40264 0.0747,0 0.1398,-0.1204 0.1398,-0.25837 0,-0.0443 -0.13914,-0.14415 -0.30924,-0.22196 -0.17008,-0.0778 -0.30924,-0.166 -0.30924,-0.19602 0,-0.03 -0.039,-0.0546 -0.0866,-0.0546 -0.0476,0 -0.1615,-0.0506 -0.253,-0.11246 -0.33172,-0.22417 -0.4812,-0.31425 -0.78489,-0.47311 -0.17009,-0.089 -0.3472,-0.19093 -0.3936,-0.22663 -0.0463,-0.0356 -0.1792,-0.11365 -0.29518,-0.17327 -0.11597,-0.0596 -0.21085,-0.12796 -0.21085,-0.15184 0,-0.024 -0.0443,-0.0436 -0.0984,-0.0438 -0.0542,-2.3e-4 -0.17431,-0.0524 -0.26709,-0.11579 -0.0928,-0.0635 -0.21928,-0.1396 -0.28113,-0.16914 -0.0618,-0.0296 -0.18835,-0.10307 -0.28112,-0.16338 -0.0928,-0.0603 -0.26989,-0.16159 -0.39358,-0.22508 -0.27459,-0.14086 -0.42089,-0.2318 -0.52173,-0.32423 -0.0421,-0.0387 -0.10046,-0.0703 -0.12951,-0.0703 -0.029,0 -0.25469,-0.12651 -0.50141,-0.28112 -0.24671,-0.15464 -0.47235,-0.28114 -0.5014,-0.28114 -0.0291,0 -0.0862,-0.0327 -0.12711,-0.0724 -0.0409,-0.0399 -0.16286,-0.11645 -0.27109,-0.17023 -0.21188,-0.10532 -0.40456,-0.21816 -0.4498,-0.26341 -0.0156,-0.0155 -0.15246,-0.0914 -0.30442,-0.16867 -0.15196,-0.0773 -0.33726,-0.17446 -0.41179,-0.2159 -0.0858,-0.0476 -0.19064,-0.0598 -0.28596,-0.0329 -0.0827,0.0233 -0.16946,0.0383 -0.19265,0.0332 -0.0232,-0.005 -0.0421,0.0288 -0.0421,0.0751 0,0.0463 -0.0257,0.0844 -0.0574,0.0844 -0.0315,0 -0.15172,0.0595 -0.26709,0.13222 -0.11534,0.0728 -0.36152,0.21362 -0.54707,0.31311 -0.18555,0.0995 -0.41327,0.22945 -0.50603,0.2888 -0.0928,0.0594 -0.25725,0.15251 -0.36547,0.20699 -0.10823,0.0545 -0.22784,0.1283 -0.26577,0.16403 -0.0379,0.0357 -0.23403,0.14538 -0.43576,0.24366 -0.20172,0.0983 -0.36678,0.19666 -0.36678,0.21868 0,0.0221 -0.11386,0.087 -0.253,0.14436 -0.13916,0.0574 -0.25303,0.12029 -0.25303,0.13976 0,0.0195 -0.0696,0.0651 -0.15461,0.10115 -0.085,0.0362 -0.25584,0.13009 -0.37953,0.20874 -0.12369,0.0786 -0.26286,0.16052 -0.30923,0.18191 -0.0463,0.0214 -0.23617,0.13075 -0.4217,0.243 -0.18555,0.11224 -0.37532,0.22159 -0.4217,0.24299 -0.0463,0.0214 -0.18555,0.10326 -0.30924,0.18189 -0.12371,0.0786 -0.29448,0.1726 -0.37954,0.20874 -0.085,0.0362 -0.15461,0.0827 -0.15461,0.10353 0,0.0209 -0.0632,0.0538 -0.14057,0.073 -0.0772,0.0194 -0.14057,0.06 -0.14057,0.0904 0,0.0303 -0.0491,0.0552 -0.10911,0.0552 -0.06,0 -0.12509,0.0257 -0.14456,0.0573 -0.0195,0.0315 -0.16013,0.1205 -0.31258,0.19774 -0.15242,0.0772 -0.27712,0.16325 -0.27712,0.19112 0,0.14701 0.10353,0.24621 0.45547,0.4363 0.21334,0.11522 0.3879,0.22948 0.3879,0.25389 0,0.0244 0.0611,0.0445 0.13588,0.0445 0.0748,0 0.14431,0.02 0.15463,0.0445 0.0209,0.0493 0.58961,0.40541 0.64769,0.40541 0.0202,0 0.0769,0.0356 0.12566,0.0793 0.0488,0.0436 0.21528,0.14805 0.3699,0.23214 0.34324,0.18668 0.48132,0.26495 0.8434,0.47809 0.15463,0.091 0.33173,0.19137 0.39358,0.22301 0.0618,0.0317 0.18836,0.10803 0.28112,0.16979 0.0928,0.0617 0.21297,0.12757 0.26709,0.14628 0.0542,0.0187 0.0984,0.0564 0.0984,0.0837 0,0.0272 0.0374,0.0496 0.0834,0.0496 0.0459,0 0.24193,0.0965 0.43575,0.2145 0.19382,0.11799 0.39035,0.23217 0.43675,0.25376 0.0463,0.0216 0.21084,0.11619 0.36547,0.2102 0.15461,0.094 0.3254,0.18518 0.37952,0.2026 0.0542,0.0174 0.0984,0.048 0.0984,0.068 0,0.02 0.12653,0.0965 0.28114,0.16988 0.15462,0.0735 0.28112,0.15529 0.28112,0.18195 0,0.0266 0.0506,0.0485 0.11246,0.0485 0.0618,0 0.11246,0.0248 0.11246,0.0552 0,0.0303 0.0622,0.0709 0.13826,0.0898 0.076,0.0191 0.16987,0.0729 0.2085,0.11936 0.10365,0.12488 0.41776,0.0632 0.77961,-0.1529 z m 17.16916,-0.42529 c 0.0188,-0.0489 0.0341,-1.97133 0.0341,-4.27204 v -4.18309 l -0.21086,-0.11328 c -0.11597,-0.0623 -0.31204,-0.17504 -0.43574,-0.25055 -0.12371,-0.0754 -0.37671,-0.21855 -0.56226,-0.31792 -0.18554,-0.0993 -0.43173,-0.24012 -0.5471,-0.31285 -0.11534,-0.0729 -0.22162,-0.13221 -0.23613,-0.13221 -0.0145,0 -0.13521,-0.0707 -0.2682,-0.15738 -0.13297,-0.0866 -0.33665,-0.20617 -0.45262,-0.2658 -0.11597,-0.0596 -0.21085,-0.12798 -0.21085,-0.15187 0,-0.024 -0.0374,-0.0435 -0.0834,-0.0435 -0.0459,0 -0.24555,-0.0993 -0.44381,-0.22062 -0.19824,-0.12134 -0.53394,-0.3154 -0.74597,-0.43121 -0.21205,-0.11584 -0.48673,-0.27505 -0.61043,-0.35382 -0.27157,-0.17294 -0.58322,-0.35224 -0.94179,-0.54181 -0.14689,-0.0777 -0.26706,-0.16609 -0.26706,-0.19648 0,-0.0304 -0.037,-0.0553 -0.0824,-0.0553 -0.0453,0 -0.20343,-0.0678 -0.35141,-0.15071 -0.14799,-0.0828 -0.31965,-0.17844 -0.38153,-0.21229 -0.0618,-0.0338 -0.21364,-0.12565 -0.33735,-0.20397 -0.12369,-0.0784 -0.31345,-0.18705 -0.42169,-0.24163 -0.27023,-0.13625 -0.39463,-0.21047 -0.60021,-0.35809 -0.0969,-0.0695 -0.20003,-0.1265 -0.22917,-0.1265 -0.0605,0 -0.30121,0.12456 -0.54816,0.28366 -0.0928,0.0599 -0.20648,0.12668 -0.25272,0.1487 -0.0462,0.022 -0.27393,0.157 -0.50603,0.29995 -0.23209,0.14297 -0.45995,0.27782 -0.50632,0.29967 -0.0463,0.022 -0.20305,0.10856 -0.34814,0.19266 -0.14507,0.084 -0.39776,0.22585 -0.56153,0.31502 -0.16377,0.0892 -0.47519,0.26857 -0.69205,0.39863 -0.21688,0.13008 -0.43227,0.25303 -0.47865,0.27326 -0.0463,0.0201 -0.12229,0.0626 -0.16867,0.0939 -0.31167,0.2112 -1.3269,0.78694 -1.38769,0.78694 -0.0408,0 -0.0743,0.0208 -0.0743,0.0462 0,0.0254 -0.10752,0.1023 -0.23896,0.1708 -0.13143,0.0685 -0.2769,0.1479 -0.32328,0.17646 -0.26676,0.16424 -0.95407,0.56081 -1.10898,0.63984 -0.16314,0.0833 -0.17511,0.10589 -0.11997,0.2269 0.0337,0.0739 0.17849,0.19308 0.32178,0.26477 0.14331,0.0717 0.33646,0.18177 0.42923,0.24459 0.24875,0.16845 0.3686,0.23973 0.61849,0.3678 0.1237,0.0633 0.30081,0.16112 0.39359,0.21719 0.31957,0.19313 2.87619,1.67142 3.54223,2.04821 0.56046,0.31704 0.69961,0.39686 0.80583,0.46218 0.0516,0.0318 0.28987,0.16686 0.52954,0.30027 0.23965,0.13343 0.43574,0.2656 0.43574,0.29373 0,0.0281 0.0393,0.0511 0.0873,0.0511 0.048,0 0.18042,0.0631 0.29419,0.14056 0.11377,0.0772 0.22579,0.14056 0.24894,0.14056 0.0231,0 0.1754,0.0842 0.33836,0.18725 0.16294,0.10298 0.33422,0.20446 0.38062,0.22552 0.0463,0.021 0.16025,0.0882 0.25302,0.14927 0.0928,0.061 0.21929,0.13596 0.28111,0.16648 0.0618,0.0306 0.23898,0.1309 0.39361,0.22311 0.1546,0.0922 0.36967,0.21094 0.47791,0.26386 0.10823,0.0529 0.2474,0.14114 0.30924,0.19601 0.0618,0.0548 0.1251,0.099 0.14055,0.098 0.0637,-0.004 0.33736,0.14216 0.33736,0.18022 0,0.0226 0.0632,0.0568 0.14057,0.0764 0.0772,0.0194 0.14058,0.06 0.14058,0.0904 0,0.0303 0.0491,0.0552 0.10912,0.0552 0.06,0 0.12386,0.0237 0.14184,0.0529 0.0179,0.0291 0.14599,0.10948 0.28445,0.17863 0.13846,0.0692 0.25175,0.14655 0.25175,0.17198 0,0.0255 0.0484,0.0462 0.10777,0.0462 0.0592,0 0.11619,0.0214 0.1265,0.0476 0.0102,0.0261 0.22116,0.155 0.46855,0.2865 0.24739,0.13146 0.48775,0.27073 0.53414,0.30946 0.0463,0.0388 0.1223,0.0877 0.16868,0.10882 0.0463,0.0211 0.21084,0.11265 0.36547,0.20341 0.15463,0.0907 0.33806,0.19055 0.40765,0.22178 0.0696,0.0313 0.1265,0.0827 0.1265,0.1144 0,0.0317 0.0384,0.0576 0.0854,0.0576 0.0757,0 0.25504,0.0934 0.61949,0.3223 0.0606,0.0381 0.21153,0.12194 0.33523,0.1863 0.1237,0.0643 0.28816,0.15296 0.36547,0.19694 0.18274,0.10395 0.26125,0.10206 0.30323,-0.006 z m 2.09778,0.0198 c 0.0865,-0.038 0.16993,-0.0841 0.18538,-0.10251 0.0156,-0.0183 0.0661,-0.0496 0.11245,-0.0696 0.0463,-0.02 0.21085,-0.11179 0.36547,-0.20413 0.15463,-0.0923 0.36969,-0.21221 0.47793,-0.26644 0.10822,-0.0543 0.29547,-0.16927 0.41608,-0.25565 0.1206,-0.0864 0.24472,-0.15705 0.27581,-0.15705 0.0312,0 0.13948,-0.0632 0.24083,-0.14057 0.10136,-0.0772 0.22244,-0.14056 0.26907,-0.14056 0.0466,0 0.0979,-0.0212 0.11405,-0.0474 0.0398,-0.0646 0.9163,-0.57109 0.98813,-0.57109 0.0317,0 0.0575,-0.0253 0.0575,-0.0561 0,-0.0309 0.0348,-0.0562 0.0774,-0.0562 0.0427,0 0.10895,-0.0379 0.14744,-0.0844 0.0384,-0.0463 0.11752,-0.0843 0.17558,-0.0843 0.0581,0 0.10556,-0.0209 0.10556,-0.0462 0,-0.0254 0.10754,-0.10231 0.23896,-0.17079 0.13142,-0.0685 0.27691,-0.14819 0.3233,-0.17704 0.28363,-0.17659 0.86173,-0.50579 1.13845,-0.64832 0.17774,-0.0915 0.32323,-0.18542 0.3233,-0.20862 5e-5,-0.0233 0.0317,-0.0425 0.0704,-0.0427 0.0387,-2.8e-4 0.22208,-0.0953 0.40763,-0.2111 0.18556,-0.1158 0.40889,-0.24739 0.49634,-0.29242 0.0874,-0.045 0.1812,-0.12339 0.20837,-0.17414 0.0771,-0.14401 0.0407,-8.41033 -0.0374,-8.48838 -0.0702,-0.0702 -0.19479,-0.0122 -0.90277,0.41997 -0.22227,0.13567 -0.45631,0.26322 -0.52011,0.28348 -0.0637,0.0203 -0.11597,0.0574 -0.11597,0.0827 0,0.0253 -0.0442,0.0612 -0.0984,0.0801 -0.0542,0.0188 -0.19961,0.0933 -0.3233,0.16567 -0.12369,0.0723 -0.32611,0.18939 -0.4498,0.2601 -0.12371,0.0708 -0.43998,0.25573 -0.70283,0.41122 -0.53081,0.31395 -0.751,0.44068 -1.12453,0.64723 -0.13916,0.0769 -0.29097,0.16932 -0.33735,0.20531 -0.0463,0.0361 -0.16025,0.10191 -0.25302,0.14652 -0.0928,0.0446 -0.32727,0.17635 -0.52108,0.29276 -0.19383,0.11641 -0.38991,0.21167 -0.43575,0.21167 -0.0459,0 -0.0834,0.0248 -0.0834,0.0552 0,0.0303 -0.0632,0.071 -0.14057,0.0904 -0.0773,0.0194 -0.14057,0.0521 -0.14057,0.0726 0,0.0206 -0.0949,0.0859 -0.21084,0.14533 -0.11597,0.0595 -0.28675,0.16182 -0.37953,0.2276 -0.0928,0.0657 -0.28616,0.17572 -0.42974,0.24426 -0.1603,0.0765 -0.27394,0.17267 -0.29441,0.24905 -0.0441,0.16448 -0.0448,8.27018 -5.8e-4,8.38502 0.0411,0.10707 0.0816,0.10987 0.28652,0.0198 z m -27.70271,-5.46912 c 0.12247,-0.0773 0.24017,-0.14056 0.26153,-0.14056 0.0214,0 0.0787,-0.0343 0.12763,-0.0762 0.0488,-0.0419 0.22794,-0.14943 0.39801,-0.23895 0.17007,-0.0895 0.32188,-0.17669 0.33735,-0.19371 0.0384,-0.0423 0.614,-0.39075 0.64547,-0.39075 0.0139,0 0.24757,-0.13399 0.51924,-0.29777 0.27167,-0.16376 0.58252,-0.34272 0.69075,-0.39768 0.10824,-0.0549 0.24739,-0.12997 0.30925,-0.16666 0.0618,-0.0367 0.27194,-0.16138 0.46687,-0.27703 0.19493,-0.11566 0.37838,-0.21028 0.40764,-0.21028 0.0292,0 0.0533,-0.0253 0.0533,-0.0561 0,-0.0309 0.0475,-0.0562 0.10557,-0.0562 0.0581,0 0.13708,-0.0379 0.17558,-0.0844 0.0383,-0.0463 0.10273,-0.0843 0.14275,-0.0843 0.0401,0 0.0812,-0.019 0.0915,-0.0421 0.0103,-0.0232 0.13892,-0.1049 0.28581,-0.18157 0.14688,-0.0766 0.26708,-0.15889 0.26708,-0.18273 0,-0.0239 0.0356,-0.0433 0.0793,-0.0433 0.12101,0 0.5392,-0.29121 0.5392,-0.37547 0,-0.0408 0.005,-0.0922 0.0141,-0.11402 0.0132,-0.0373 -0.29869,-0.22318 -0.74499,-0.44405 -0.10825,-0.0535 -0.23474,-0.12782 -0.28113,-0.16501 -0.0463,-0.0373 -0.1982,-0.13024 -0.33736,-0.2068 -0.61432,-0.33788 -0.92974,-0.51847 -0.95584,-0.54725 -0.0156,-0.017 -0.11668,-0.0751 -0.22491,-0.12908 -0.2408,-0.12004 -0.49975,-0.26924 -0.71182,-0.41011 -0.0879,-0.0582 -0.23559,-0.14678 -0.32837,-0.19653 -0.19007,-0.10192 -0.64574,-0.36011 -0.8996,-0.50973 -0.0928,-0.0546 -0.3205,-0.18008 -0.50603,-0.27871 -0.18554,-0.0986 -0.36924,-0.20481 -0.40822,-0.23598 -0.0768,-0.0614 -0.44064,-0.27037 -0.72525,-0.41652 -0.37435,-0.19222 -0.35318,-0.40618 -0.3557,3.59509 -6.6e-4,1.99036 0.0149,3.63603 0.036,3.65706 0.0786,0.0786 0.31008,0.0336 0.52551,-0.10237 z m 8.28926,-4.79327 c 0.19,-0.11597 0.39514,-0.24123 0.45589,-0.27835 0.0608,-0.0373 0.28755,-0.16072 0.50402,-0.27467 0.21649,-0.11393 0.46408,-0.25671 0.55023,-0.3173 0.0862,-0.0605 0.19573,-0.11585 0.24348,-0.12287 0.0477,-0.006 0.10376,-0.0381 0.12446,-0.0692 0.0208,-0.0309 0.0756,-0.0734 0.12202,-0.094 0.0463,-0.0208 0.13405,-0.0696 0.19479,-0.10835 0.4366,-0.27922 0.81123,-0.49234 0.86552,-0.49234 0.0352,0 0.0642,-0.0226 0.0642,-0.0502 0,-0.0275 0.0632,-0.066 0.14056,-0.0854 0.0773,-0.0194 0.14058,-0.06 0.14058,-0.0904 0,-0.0303 0.0475,-0.0552 0.10557,-0.0552 0.0581,0 0.13513,-0.0356 0.17125,-0.0792 0.0361,-0.0436 0.14677,-0.1213 0.24586,-0.17282 0.0991,-0.0515 0.33195,-0.17981 0.5175,-0.28508 0.18555,-0.10529 0.4259,-0.23623 0.53413,-0.29103 0.10826,-0.0547 0.20524,-0.11862 0.21555,-0.14182 0.0102,-0.0233 0.0426,-0.0421 0.0714,-0.0421 0.029,0 0.15968,-0.0687 0.2905,-0.15278 0.13081,-0.084 0.31375,-0.1947 0.40652,-0.24595 0.0928,-0.0513 0.25723,-0.14614 0.36547,-0.21088 0.10822,-0.0646 0.29799,-0.16957 0.4217,-0.23297 0.26568,-0.13616 0.43896,-0.24063 0.47791,-0.2881 0.0156,-0.0189 0.19257,-0.12257 0.39359,-0.23047 l 0.36546,-0.19618 v -4.26606 c 0,-4.25699 -2.1e-4,-4.26607 -0.11474,-4.26607 -0.0632,0 -0.21491,0.061 -0.33734,0.13556 -0.12245,0.0745 -0.31119,0.18425 -0.41941,0.24375 -0.10825,0.0596 -0.42451,0.24152 -0.70283,0.4045 -0.27832,0.16298 -0.63255,0.36672 -0.78717,0.45279 -0.15461,0.086 -0.35703,0.20206 -0.44981,0.25778 -0.0928,0.0556 -0.26988,0.15317 -0.39358,0.21658 -0.25478,0.13057 -0.3772,0.20369 -0.61847,0.3694 -0.0928,0.0637 -0.25724,0.15985 -0.36548,0.21361 -0.10823,0.0538 -0.3233,0.17336 -0.47792,0.26572 -0.15463,0.0924 -0.34439,0.1982 -0.42169,0.2352 -0.0772,0.037 -0.15322,0.0828 -0.16869,0.10203 -0.0156,0.0191 -0.14197,0.098 -0.28111,0.1752 -0.50382,0.27956 -1.37949,0.77989 -1.46189,0.83528 -0.0463,0.0313 -0.12862,0.0715 -0.18272,0.0897 -0.0542,0.0182 -0.0984,0.0554 -0.0984,0.0827 0,0.0272 -0.0362,0.0496 -0.0804,0.0496 -0.0441,0 -0.11483,0.0317 -0.157,0.0703 -0.0991,0.0908 -0.24874,0.18368 -0.49361,0.30622 -0.18084,0.0905 -0.81271,0.45364 -1.01207,0.58166 -0.0463,0.0298 -0.13495,0.0786 -0.19679,0.10868 -0.0618,0.0299 -0.23897,0.12932 -0.39359,0.22079 -0.54683,0.32349 -0.7109,0.40077 -0.77145,0.36338 -0.0368,-0.0228 -0.045,-0.0116 -0.0209,0.0275 0.0233,0.0378 -0.004,0.0815 -0.0617,0.10376 -0.0561,0.0211 -0.20061,0.10952 -0.32121,0.1964 -0.12061,0.0869 -0.24204,0.15795 -0.2698,0.15795 -0.0278,0 -0.18892,0.0885 -0.35812,0.19679 -0.1692,0.10823 -0.32934,0.19678 -0.35589,0.19678 -0.0265,0 -0.0797,0.0379 -0.11823,0.0844 -0.0385,0.0463 -0.11751,0.0843 -0.17558,0.0843 -0.058,0 -0.10556,0.0253 -0.10556,0.0562 0,0.0309 -0.0362,0.0562 -0.0804,0.0562 -0.0441,0 -0.11483,0.0317 -0.15698,0.0703 -0.10075,0.0924 -0.24693,0.18321 -0.52175,0.32438 -0.1237,0.0636 -0.35141,0.19121 -0.50604,0.28372 -0.15461,0.0925 -0.33172,0.19315 -0.39357,0.22365 -0.0618,0.0306 -0.18837,0.10457 -0.28113,0.1646 -0.0928,0.0599 -0.25724,0.15341 -0.36547,0.20758 -0.10824,0.0542 -0.29065,0.16564 -0.40535,0.24775 -0.11471,0.0821 -0.29182,0.18375 -0.3936,0.22589 -0.37742,0.1563 -0.60147,0.50117 -0.32557,0.50117 0.0618,0 0.11245,0.0209 0.11245,0.0462 0,0.0254 0.10753,0.10267 0.23896,0.17161 0.13143,0.0688 0.31485,0.17044 0.40764,0.22561 0.0928,0.0552 0.32049,0.18434 0.50603,0.28706 0.35111,0.1944 0.65682,0.37234 0.84552,0.49211 0.0605,0.0384 0.20519,0.11406 0.32117,0.16789 0.11596,0.0538 0.21086,0.11535 0.21086,0.1367 0,0.0214 0.0695,0.074 0.15461,0.11686 0.23383,0.11801 0.82181,0.44551 0.88556,0.49328 0.0309,0.0231 0.20804,0.12434 0.39359,0.22481 0.42122,0.22811 0.57378,0.31503 0.78717,0.44842 0.0928,0.058 0.26168,0.15642 0.3754,0.21869 0.37938,0.20783 0.46777,0.2597 0.49609,0.29106 0.0156,0.017 0.14197,0.0894 0.28113,0.16078 0.13915,0.0712 0.26566,0.14596 0.28113,0.16594 0.0156,0.02 0.17568,0.11209 0.35603,0.2047 0.18035,0.0926 0.35424,0.2 0.38641,0.23866 0.0932,0.11199 0.20637,0.0843 0.57479,-0.14057 z m 18.53922,0.0421 c 0.15077,-0.0928 0.29906,-0.16868 0.32952,-0.16868 0.0306,0 0.0554,-0.0253 0.0554,-0.0562 0,-0.0309 0.0506,-0.0562 0.11245,-0.0562 0.0618,0 0.11245,-0.0245 0.11245,-0.0547 0,-0.0302 0.10753,-0.10651 0.23896,-0.16968 0.13144,-0.0632 0.27693,-0.13899 0.3233,-0.16848 0.24154,-0.15359 0.84884,-0.50665 0.87151,-0.50665 0.0144,0 0.19148,-0.10119 0.39358,-0.2249 0.20209,-0.1237 0.3923,-0.2249 0.42268,-0.2249 0.0304,0 0.0552,-0.0193 0.0552,-0.0429 0,-0.0236 0.0486,-0.0679 0.10791,-0.0984 0.0593,-0.0306 0.27405,-0.14102 0.47712,-0.24556 0.20305,-0.10453 0.39796,-0.22471 0.43313,-0.26706 0.0351,-0.0423 0.11142,-0.077 0.16949,-0.077 0.0581,0 0.10557,-0.0242 0.10557,-0.0535 0,-0.0295 0.0948,-0.0978 0.21084,-0.15206 0.11597,-0.0542 0.42591,-0.22766 0.68877,-0.38557 0.26285,-0.1579 0.51587,-0.30533 0.56226,-0.32759 0.0463,-0.0223 0.21085,-0.11374 0.36548,-0.20324 0.15461,-0.0895 0.38864,-0.21976 0.52008,-0.28938 0.13143,-0.0697 0.23896,-0.14447 0.23896,-0.1663 0,-0.0219 0.0506,-0.0529 0.11245,-0.0692 0.0657,-0.0172 0.11243,-0.0767 0.11243,-0.14332 0,-0.0645 -0.0487,-0.12941 -0.11243,-0.14963 -0.0618,-0.0197 -0.11245,-0.0593 -0.11245,-0.0881 0,-0.0288 -0.0443,-0.0544 -0.0984,-0.0566 -0.0542,-0.002 -0.17432,-0.0525 -0.26708,-0.11183 -0.0928,-0.0592 -0.20662,-0.12511 -0.25301,-0.14636 -0.0463,-0.0214 -0.16024,-0.0926 -0.25302,-0.15844 -0.0928,-0.0659 -0.2695,-0.16895 -0.39273,-0.22905 -0.12322,-0.06 -0.25786,-0.14087 -0.29921,-0.17954 -0.0413,-0.0387 -0.1113,-0.0703 -0.15547,-0.0703 -0.0442,0 -0.0803,-0.0253 -0.0803,-0.0562 0,-0.0309 -0.0248,-0.0561 -0.0553,-0.0561 -0.045,0 -0.4867,-0.24786 -0.9006,-0.50552 -0.0463,-0.0288 -0.19188,-0.10855 -0.32331,-0.17705 -0.13143,-0.0685 -0.23895,-0.14536 -0.23895,-0.17079 0,-0.0254 -0.0491,-0.0462 -0.10915,-0.0462 -0.06,0 -0.12377,-0.0237 -0.14168,-0.0525 -0.0179,-0.029 -0.10163,-0.0882 -0.18604,-0.13166 -0.32681,-0.16821 -0.66753,-0.3637 -1.17312,-0.67311 -0.18948,-0.11596 -0.37284,-0.21085 -0.40745,-0.21085 -0.0347,0 -0.0629,-0.0253 -0.0629,-0.0561 0,-0.0309 -0.032,-0.0562 -0.0712,-0.0562 -0.0392,0 -0.17204,-0.0694 -0.29518,-0.15416 -0.22098,-0.15214 -0.29837,-0.19642 -0.99479,-0.56939 -0.19449,-0.10417 -0.39158,-0.2201 -0.43796,-0.25764 -0.0463,-0.0376 -0.17291,-0.11151 -0.28114,-0.16439 -0.10823,-0.0528 -0.28536,-0.14885 -0.39358,-0.21328 -0.10825,-0.0645 -0.2728,-0.15825 -0.36571,-0.20849 -0.0929,-0.0503 -0.24861,-0.14824 -0.34603,-0.21783 -0.0974,-0.0697 -0.20304,-0.12651 -0.23472,-0.12651 -0.0317,0 -0.092,-0.0316 -0.13406,-0.0703 -0.0777,-0.0714 -0.15759,-0.12019 -0.55765,-0.34042 -0.12336,-0.0679 -0.3347,-0.18671 -0.46966,-0.26402 -0.13495,-0.0773 -0.44332,-0.25377 -0.68527,-0.39212 -0.24195,-0.13835 -0.48202,-0.27751 -0.53351,-0.30923 -0.0515,-0.0317 -0.20963,-0.11911 -0.35142,-0.19417 -0.14179,-0.0751 -0.25779,-0.15455 -0.25779,-0.17665 0,-0.0222 -0.0632,-0.0561 -0.14056,-0.0754 -0.0773,-0.0194 -0.14057,-0.06 -0.14057,-0.0904 0,-0.0303 -0.0418,-0.0552 -0.0931,-0.0552 -0.0512,0 -0.17138,-0.0577 -0.26707,-0.12841 -0.0957,-0.0707 -0.23725,-0.15862 -0.31456,-0.19554 -0.0772,-0.037 -0.24177,-0.13076 -0.36546,-0.20855 -0.12369,-0.0778 -0.26285,-0.15895 -0.30926,-0.18035 -0.0463,-0.0214 -0.23614,-0.13078 -0.42168,-0.2431 -0.28762,-0.17408 -0.8725,-0.49999 -1.37047,-0.76369 -0.16821,-0.089 -0.26889,-0.0518 -0.31077,0.11521 -0.018,0.0717 -0.0322,1.97586 -0.0319,4.2314 l 0.002,4.10096 0.36703,0.19013 c 0.20186,0.10458 0.3941,0.22275 0.42717,0.26264 0.033,0.0398 0.0819,0.0725 0.10849,0.0725 0.0265,0 0.21371,0.10121 0.4158,0.22492 0.2021,0.12369 0.37691,0.2249 0.38846,0.2249 0.0226,0 1.01841,0.58083 1.15776,0.67534 0.15663,0.10619 0.47695,0.28394 0.63254,0.35098 0.085,0.0366 0.15463,0.0864 0.15463,0.11053 0,0.0241 0.0476,0.0439 0.10556,0.0439 0.0581,0 0.13707,0.0379 0.17556,0.0844 0.0385,0.0463 0.10485,0.0843 0.14746,0.0843 0.0426,0 0.0777,0.0189 0.0778,0.0421 4.2e-4,0.0566 0.32557,0.23896 0.4259,0.23896 0.0439,0 0.0797,0.0245 0.0797,0.0548 0,0.0301 0.12018,0.10924 0.26707,0.17575 0.1469,0.0665 0.34263,0.17469 0.43496,0.24038 0.0924,0.0657 0.2242,0.14903 0.29303,0.18524 0.35399,0.18622 0.49915,0.27811 0.5399,0.3418 0.0248,0.0387 0.0822,0.0703 0.12762,0.0703 0.0455,0 0.18287,0.0632 0.30533,0.14056 0.12248,0.0772 0.23539,0.14056 0.2509,0.14056 0.0156,0 0.19361,0.10121 0.39571,0.22491 0.2021,0.1237 0.3923,0.2249 0.42268,0.2249 0.0304,0 0.0553,0.0253 0.0553,0.0561 0,0.0309 0.0342,0.0562 0.076,0.0562 0.0418,0 0.17462,0.0741 0.29518,0.16483 0.12056,0.0906 0.25436,0.16656 0.29734,0.16867 0.043,0.002 0.20148,-0.072 0.35226,-0.16483 z"
         style="fill:#000000;fill-opacity:1;stroke:none;stroke-width:0.779566;stroke-opacity:1" />
    </g>
    <g
       style="fill:#000000;fill-opacity:1;stroke:none;stroke-width:0.903467;stroke-opacity:1"
       transform="matrix(1.4188596,0,0,1.4188596,-64.660923,-39.962781)"
       id="g3764">
      <path
         id="path2052"
         style="font-style:normal;font-variant:normal;font-weight:800;font-stretch:normal;font-size:16.5825px;line-height:1.75ex;font-family:'Open Sans';-inkscape-font-specification:'Open Sans Ultra-Bold';font-variant-ligatures:normal;font-variant-caps:normal;font-variant-numeric:normal;font-feature-settings:normal;text-align:center;letter-spacing:0px;word-spacing:0px;writing-mode:lr-tb;text-anchor:middle;fill:#000000;fill-opacity:1;stroke:none;stroke-width:0.239042;stroke-opacity:1"
         d="m 143.97018,207.06883 h -3.78127 l -1.13357,-5.15775 q -0.081,-0.32388 -0.2591,-1.28741 -0.17004,-0.96354 -0.25101,-1.61129 -0.0648,0.5263 -0.21052,1.3117 -0.14574,0.77731 -0.29149,1.43316 -0.13764,0.65585 -1.17405,5.31159 h -3.78127 l -2.93109,-11.83772 h 3.08493 l 1.28741,5.93505 q 0.43724,1.96756 0.59918,3.13352 0.10526,-0.82589 0.37246,-2.24285 0.27529,-1.41697 0.5101,-2.34811 l 1.04451,-4.47761 h 2.96347 l 1.01212,4.47761 q 0.2591,1.07689 0.5263,2.48575 0.2672,1.40887 0.35627,2.10521 0.10526,-0.89876 0.57488,-3.11732 l 1.3117,-5.95125 h 3.08493 z"
         inkscape:connector-curvature="0" />
      <path
         id="path2054"
         style="font-style:normal;font-variant:normal;font-weight:800;font-stretch:normal;font-size:16.5825px;line-height:1.75ex;font-family:'Open Sans';-inkscape-font-specification:'Open Sans Ultra-Bold';font-variant-ligatures:normal;font-variant-caps:normal;font-variant-numeric:normal;font-feature-settings:normal;text-align:center;letter-spacing:0px;word-spacing:0px;writing-mode:lr-tb;text-anchor:middle;fill:#000000;fill-opacity:1;stroke:none;stroke-width:0.239042;stroke-opacity:1"
         d="m 152.65818,207.23076 q -2.29143,0 -3.56265,-1.21453 -1.26312,-1.22264 -1.26312,-3.47359 0,-2.32382 1.17406,-3.56265 1.17405,-1.24692 3.35213,-1.24692 2.07281,0 3.19828,1.08498 1.13357,1.0769 1.13357,3.10923 v 1.40886 h -5.65975 q 0.0324,0.76921 0.55869,1.20644 0.5344,0.43724 1.44935,0.43724 0.83398,0 1.53032,-0.15384 0.70443,-0.16194 1.52222,-0.5425 v 2.27524 q -0.74492,0.38056 -1.53842,0.5263 -0.79349,0.14574 -1.89468,0.14574 z m -0.18623,-7.34391 q -0.55868,0 -0.93924,0.35626 -0.37246,0.34817 -0.43723,1.10119 h 2.72056 q -0.0162,-0.66395 -0.38055,-1.0607 -0.35627,-0.39675 -0.96354,-0.39675 z"
         inkscape:connector-curvature="0" />
      <path
         id="path2056"
         style="font-style:normal;font-variant:normal;font-weight:800;font-stretch:normal;font-size:16.5825px;line-height:1.75ex;font-family:'Open Sans';-inkscape-font-specification:'Open Sans Ultra-Bold';font-variant-ligatures:normal;font-variant-caps:normal;font-variant-numeric:normal;font-feature-settings:normal;text-align:center;letter-spacing:0px;word-spacing:0px;writing-mode:lr-tb;text-anchor:middle;fill:#000000;fill-opacity:1;stroke:none;stroke-width:0.239042;stroke-opacity:1"
         d="m 165.58088,204.25109 q 0,1.47365 -1.00401,2.22666 -1.00402,0.75301 -2.88251,0.75301 -1.02022,0 -1.77323,-0.11335 -0.75301,-0.10526 -1.53842,-0.39675 v -2.53434 q 0.73682,0.32388 1.61129,0.5344 0.88257,0.21052 1.57081,0.21052 1.02831,0 1.02831,-0.46963 0,-0.2429 -0.29149,-0.42913 -0.28339,-0.19433 -1.66797,-0.74492 -1.26312,-0.5182 -1.76513,-1.17406 -0.50201,-0.66394 -0.50201,-1.67606 0,-1.27932 0.98782,-1.99185 0.98783,-0.71252 2.79345,-0.71252 0.90685,0 1.70035,0.20242 0.8016,0.19432 1.65987,0.57488 l -0.85827,2.04043 q -0.63156,-0.2834 -1.336,-0.47772 -0.70443,-0.20243 -1.14976,-0.20243 -0.77731,0 -0.77731,0.38056 0,0.23481 0.2672,0.40485 0.2753,0.16194 1.57081,0.67204 0.96353,0.39675 1.43315,0.77731 0.47772,0.38055 0.69634,0.89876 0.22671,0.5101 0.22671,1.24692 z"
         inkscape:connector-curvature="0" />
      <path
         id="path2058"
         style="font-style:normal;font-variant:normal;font-weight:800;font-stretch:normal;font-size:16.5825px;line-height:1.75ex;font-family:'Open Sans';-inkscape-font-specification:'Open Sans Ultra-Bold';font-variant-ligatures:normal;font-variant-caps:normal;font-variant-numeric:normal;font-feature-settings:normal;text-align:center;letter-spacing:0px;word-spacing:0px;writing-mode:lr-tb;text-anchor:middle;fill:#000000;fill-opacity:1;stroke:none;stroke-width:0.239042;stroke-opacity:1"
         d="m 171.83171,204.72881 q 0.63966,0 1.53032,-0.31578 v 2.30763 q -0.63965,0.27529 -1.22263,0.38865 -0.57489,0.12145 -1.35219,0.12145 -1.5951,0 -2.29953,-0.7773 -0.70443,-0.7854 -0.70443,-2.40479 v -3.78127 h -1.10928 v -1.28741 l 1.40886,-0.99592 0.81779,-1.92707 h 2.07282 v 1.838 h 2.25095 v 2.3724 h -2.25095 v 3.57075 q 0,0.89066 0.85827,0.89066 z"
         inkscape:connector-curvature="0" />
      <path
         id="path2060"
         style="font-style:normal;font-variant:normal;font-weight:800;font-stretch:normal;font-size:16.5825px;line-height:1.75ex;font-family:'Open Sans';-inkscape-font-specification:'Open Sans Ultra-Bold';font-variant-ligatures:normal;font-variant-caps:normal;font-variant-numeric:normal;font-feature-settings:normal;text-align:center;letter-spacing:0px;word-spacing:0px;writing-mode:lr-tb;text-anchor:middle;fill:#000000;fill-opacity:1;stroke:none;stroke-width:0.239042;stroke-opacity:1"
         d="m 182.06624,204.25109 q 0,1.47365 -1.00402,2.22666 -1.00402,0.75301 -2.88251,0.75301 -1.02021,0 -1.77323,-0.11335 -0.75301,-0.10526 -1.53842,-0.39675 v -2.53434 q 0.73683,0.32388 1.61129,0.5344 0.88257,0.21052 1.57081,0.21052 1.02831,0 1.02831,-0.46963 0,-0.2429 -0.29149,-0.42913 -0.28339,-0.19433 -1.66797,-0.74492 -1.26312,-0.5182 -1.76513,-1.17406 -0.50201,-0.66394 -0.50201,-1.67606 0,-1.27932 0.98783,-1.99185 0.98782,-0.71252 2.79344,-0.71252 0.90685,0 1.70035,0.20242 0.8016,0.19432 1.65987,0.57488 l -0.85827,2.04043 q -0.63156,-0.2834 -1.33599,-0.47772 -0.70444,-0.20243 -1.14977,-0.20243 -0.7773,0 -0.7773,0.38056 0,0.23481 0.26719,0.40485 0.2753,0.16194 1.57081,0.67204 0.96353,0.39675 1.43316,0.77731 0.47771,0.38055 0.69633,0.89876 0.22672,0.5101 0.22672,1.24692 z"
         inkscape:connector-curvature="0" />
      <path
         id="path2062"
         style="font-style:normal;font-variant:normal;font-weight:800;font-stretch:normal;font-size:16.5825px;line-height:1.75ex;font-family:'Open Sans';-inkscape-font-specification:'Open Sans Ultra-Bold';font-variant-ligatures:normal;font-variant-caps:normal;font-variant-numeric:normal;font-feature-settings:normal;text-align:center;letter-spacing:0px;word-spacing:0px;writing-mode:lr-tb;text-anchor:middle;fill:#000000;fill-opacity:1;stroke:none;stroke-width:0.239042;stroke-opacity:1"
         d="m 187.00536,207.06883 h -3.1659 V 197.895 h 3.1659 z m -3.24687,-11.45716 q 0,-0.71253 0.39675,-1.0607 0.39675,-0.34817 1.27932,-0.34817 0.88256,0 1.28741,0.35627 0.40485,0.35626 0.40485,1.0526 0,1.39267 -1.69226,1.39267 -1.67607,0 -1.67607,-1.39267 z"
         inkscape:connector-curvature="0" />
      <path
         id="path2064"
         style="font-style:normal;font-variant:normal;font-weight:800;font-stretch:normal;font-size:16.5825px;line-height:1.75ex;font-family:'Open Sans';-inkscape-font-specification:'Open Sans Ultra-Bold';font-variant-ligatures:normal;font-variant-caps:normal;font-variant-numeric:normal;font-feature-settings:normal;text-align:center;letter-spacing:0px;word-spacing:0px;writing-mode:lr-tb;text-anchor:middle;fill:#000000;fill-opacity:1;stroke:none;stroke-width:0.239042;stroke-opacity:1"
         d="m 192.08214,207.23076 q -0.97973,0 -1.71655,-0.55868 -0.72873,-0.55869 -1.13357,-1.64368 -0.39675,-1.08499 -0.39675,-2.53434 0,-2.23475 0.89876,-3.49787 0.89876,-1.26312 2.46956,-1.26312 0.76921,0 1.34409,0.30768 0.58298,0.30768 1.0607,1.03641 h 0.0648 q -0.15384,-1.0769 -0.15384,-2.15379 V 194.47 h 3.19019 v 12.59883 h -2.38859 l -0.68014,-1.15787 h -0.12146 q -0.81779,1.3198 -2.43717,1.3198 z m 1.29551,-2.50195 q 0.76111,0 1.06879,-0.47772 0.31578,-0.47771 0.34007,-1.47364 v -0.251 q 0,-1.21454 -0.34817,-1.72465 -0.34816,-0.5182 -1.09308,-0.5182 -0.62347,0 -0.97163,0.59107 -0.34008,0.58298 -0.34008,1.66797 0,1.0688 0.34817,1.62748 0.34817,0.55869 0.99593,0.55869 z"
         inkscape:connector-curvature="0" />
      <path
         id="path2066"
         style="font-style:normal;font-variant:normal;font-weight:800;font-stretch:normal;font-size:16.5825px;line-height:1.75ex;font-family:'Open Sans';-inkscape-font-specification:'Open Sans Ultra-Bold';font-variant-ligatures:normal;font-variant-caps:normal;font-variant-numeric:normal;font-feature-settings:normal;text-align:center;letter-spacing:0px;word-spacing:0px;writing-mode:lr-tb;text-anchor:middle;fill:#000000;fill-opacity:1;stroke:none;stroke-width:0.239042;stroke-opacity:1"
         d="m 204.3166,207.23076 q -2.29143,0 -3.56265,-1.21453 -1.26312,-1.22264 -1.26312,-3.47359 0,-2.32382 1.17406,-3.56265 1.17405,-1.24692 3.35212,-1.24692 2.07282,0 3.19829,1.08498 1.13357,1.0769 1.13357,3.10923 v 1.40886 h -5.65975 q 0.0324,0.76921 0.55869,1.20644 0.53439,0.43724 1.44935,0.43724 0.83398,0 1.53032,-0.15384 0.70443,-0.16194 1.52222,-0.5425 v 2.27524 q -0.74492,0.38056 -1.53842,0.5263 -0.7935,0.14574 -1.89468,0.14574 z m -0.18623,-7.34391 q -0.55869,0 -0.93924,0.35626 -0.37246,0.34817 -0.43724,1.10119 h 2.72057 q -0.0162,-0.66395 -0.38055,-1.0607 -0.35627,-0.39675 -0.96354,-0.39675 z"
         inkscape:connector-curvature="0" />
      <path
         id="path2068"
         style="font-style:normal;font-variant:normal;font-weight:800;font-stretch:normal;font-size:16.5825px;line-height:1.75ex;font-family:'Open Sans';-inkscape-font-specification:'Open Sans Ultra-Bold';font-variant-ligatures:normal;font-variant-caps:normal;font-variant-numeric:normal;font-feature-settings:normal;text-align:center;letter-spacing:0px;word-spacing:0px;writing-mode:lr-tb;text-anchor:middle;fill:#000000;fill-opacity:1;stroke:none;stroke-width:0.239042;stroke-opacity:1"
         d="m 137.0392,217.27096 v 4.30757 h -3.19828 v -11.83772 h 3.87843 q 4.82577,0 4.82577,3.49788 0,2.05662 -2.00804,3.18209 l 3.44929,5.15775 h -3.62743 l -2.51004,-4.30757 z m 0,-2.40479 h 0.59918 q 1.67606,0 1.67606,-1.48174 0,-1.22263 -1.64368,-1.22263 h -0.63156 z"
         inkscape:connector-curvature="0" />
      <path
         id="path2070"
         style="font-style:normal;font-variant:normal;font-weight:800;font-stretch:normal;font-size:16.5825px;line-height:1.75ex;font-family:'Open Sans';-inkscape-font-specification:'Open Sans Ultra-Bold';font-variant-ligatures:normal;font-variant-caps:normal;font-variant-numeric:normal;font-feature-settings:normal;text-align:center;letter-spacing:0px;word-spacing:0px;writing-mode:lr-tb;text-anchor:middle;fill:#000000;fill-opacity:1;stroke:none;stroke-width:0.239042;stroke-opacity:1"
         d="m 153.65411,216.97137 q 0,2.25095 -1.21454,3.51407 -1.20645,1.25502 -3.38452,1.25502 -2.08901,0 -3.32784,-1.28741 -1.23073,-1.28741 -1.23073,-3.48168 0,-2.24285 1.20644,-3.48168 1.21454,-1.24693 3.40071,-1.24693 1.35219,0 2.38859,0.57489 1.03641,0.57488 1.5951,1.65177 0.56679,1.0688 0.56679,2.50195 z m -5.94315,0 q 0,1.18215 0.31578,1.80562 0.31578,0.61536 1.0607,0.61536 0.73682,0 1.0364,-0.61536 0.30769,-0.62347 0.30769,-1.80562 0,-1.17405 -0.30769,-1.77323 -0.30768,-0.59917 -1.0526,-0.59917 -0.72872,0 -1.0445,0.59917 -0.31578,0.59108 -0.31578,1.77323 z"
         inkscape:connector-curvature="0" />
      <path
         id="path2072"
         style="font-style:normal;font-variant:normal;font-weight:800;font-stretch:normal;font-size:16.5825px;line-height:1.75ex;font-family:'Open Sans';-inkscape-font-specification:'Open Sans Ultra-Bold';font-variant-ligatures:normal;font-variant-caps:normal;font-variant-numeric:normal;font-feature-settings:normal;text-align:center;letter-spacing:0px;word-spacing:0px;writing-mode:lr-tb;text-anchor:middle;fill:#000000;fill-opacity:1;stroke:none;stroke-width:0.239042;stroke-opacity:1"
         d="m 161.0547,212.24276 q 1.49793,0 2.3724,1.25503 0.88256,1.25502 0.88256,3.47358 0,2.23475 -0.89066,3.50597 -0.88256,1.26312 -2.46146,1.26312 -0.51011,0 -0.90686,-0.11335 -0.39675,-0.10526 -0.71253,-0.29959 -0.30768,-0.19433 -0.72063,-0.64775 h -0.19432 l -0.50201,0.89876 h -2.46957 V 208.9797 h 3.1659 v 2.85012 q 0,0.51011 -0.11335,1.75704 h 0.11335 q 0.46153,-0.71253 1.0607,-1.02832 0.60727,-0.31578 1.37648,-0.31578 z m -1.15786,2.48576 q -0.66395,0 -0.97163,0.46153 -0.30769,0.46152 -0.30769,1.44935 v 0.44533 q 0,1.12547 0.30769,1.61939 0.30768,0.48581 1.00402,0.48581 0.55868,0 0.85827,-0.56678 0.29959,-0.57489 0.29959,-1.68417 0,-2.21046 -1.19025,-2.21046 z"
         inkscape:connector-curvature="0" />
      <path
         id="path2074"
         style="font-style:normal;font-variant:normal;font-weight:800;font-stretch:normal;font-size:16.5825px;line-height:1.75ex;font-family:'Open Sans';-inkscape-font-specification:'Open Sans Ultra-Bold';font-variant-ligatures:normal;font-variant-caps:normal;font-variant-numeric:normal;font-feature-settings:normal;text-align:center;letter-spacing:0px;word-spacing:0px;writing-mode:lr-tb;text-anchor:middle;fill:#000000;fill-opacity:1;stroke:none;stroke-width:0.239042;stroke-opacity:1"
         d="m 174.86806,216.97137 q 0,2.25095 -1.21453,3.51407 -1.20645,1.25502 -3.38452,1.25502 -2.08901,0 -3.32784,-1.28741 -1.23073,-1.28741 -1.23073,-3.48168 0,-2.24285 1.20644,-3.48168 1.21454,-1.24693 3.40071,-1.24693 1.35219,0 2.38859,0.57489 1.03641,0.57488 1.5951,1.65177 0.56678,1.0688 0.56678,2.50195 z m -5.94314,0 q 0,1.18215 0.31578,1.80562 0.31578,0.61536 1.0607,0.61536 0.73682,0 1.0364,-0.61536 0.30769,-0.62347 0.30769,-1.80562 0,-1.17405 -0.30769,-1.77323 -0.30768,-0.59917 -1.0526,-0.59917 -0.72872,0 -1.0445,0.59917 -0.31578,0.59108 -0.31578,1.77323 z"
         inkscape:connector-curvature="0" />
      <path
         id="path2076"
         style="font-style:normal;font-variant:normal;font-weight:800;font-stretch:normal;font-size:16.5825px;line-height:1.75ex;font-family:'Open Sans';-inkscape-font-specification:'Open Sans Ultra-Bold';font-variant-ligatures:normal;font-variant-caps:normal;font-variant-numeric:normal;font-feature-settings:normal;text-align:center;letter-spacing:0px;word-spacing:0px;writing-mode:lr-tb;text-anchor:middle;fill:#000000;fill-opacity:1;stroke:none;stroke-width:0.239042;stroke-opacity:1"
         d="m 181.15938,219.23851 q 0.63966,0 1.53032,-0.31578 v 2.30763 q -0.63966,0.27529 -1.22264,0.38865 -0.57488,0.12145 -1.35219,0.12145 -1.59509,0 -2.29952,-0.7773 -0.70444,-0.7854 -0.70444,-2.40479 v -3.78127 h -1.10928 v -1.28741 l 1.40887,-0.99592 0.81779,-1.92707 h 2.07281 v 1.838 h 2.25095 v 2.3724 h -2.25095 v 3.57075 q 0,0.89066 0.85828,0.89066 z"
         inkscape:connector-curvature="0" />
      <path
         id="path2078"
         style="font-style:normal;font-variant:normal;font-weight:800;font-stretch:normal;font-size:16.5825px;line-height:1.75ex;font-family:'Open Sans';-inkscape-font-specification:'Open Sans Ultra-Bold';font-variant-ligatures:normal;font-variant-caps:normal;font-variant-numeric:normal;font-feature-settings:normal;text-align:center;letter-spacing:0px;word-spacing:0px;writing-mode:lr-tb;text-anchor:middle;fill:#000000;fill-opacity:1;stroke:none;stroke-width:0.239042;stroke-opacity:1"
         d="m 187.49118,221.57853 h -3.1659 v -9.17383 h 3.1659 z m -3.24687,-11.45716 q 0,-0.71253 0.39675,-1.0607 0.39675,-0.34817 1.27931,-0.34817 0.88257,0 1.28741,0.35627 0.40485,0.35626 0.40485,1.0526 0,1.39267 -1.69226,1.39267 -1.67606,0 -1.67606,-1.39267 z"
         inkscape:connector-curvature="0" />
      <path
         id="path2080"
         style="font-style:normal;font-variant:normal;font-weight:800;font-stretch:normal;font-size:16.5825px;line-height:1.75ex;font-family:'Open Sans';-inkscape-font-specification:'Open Sans Ultra-Bold';font-variant-ligatures:normal;font-variant-caps:normal;font-variant-numeric:normal;font-feature-settings:normal;text-align:center;letter-spacing:0px;word-spacing:0px;writing-mode:lr-tb;text-anchor:middle;fill:#000000;fill-opacity:1;stroke:none;stroke-width:0.239042;stroke-opacity:1"
         d="m 193.89585,221.74046 q -2.25095,0 -3.4169,-1.21454 -1.15786,-1.21453 -1.15786,-3.48977 0,-2.28334 1.25502,-3.53836 1.25502,-1.25503 3.57075,-1.25503 1.59509,0 3.00396,0.69634 l -0.93115,2.34001 q -0.57488,-0.251 -1.0607,-0.39675 -0.48581,-0.15384 -1.01211,-0.15384 -0.76921,0 -1.19025,0.59918 -0.42104,0.59917 -0.42104,1.69225 0,2.20237 1.62748,2.20237 1.39267,0 2.67199,-0.80969 v 2.51814 q -1.22264,0.80969 -2.93919,0.80969 z"
         inkscape:connector-curvature="0" />
      <path
         id="path2082"
         style="font-style:normal;font-variant:normal;font-weight:800;font-stretch:normal;font-size:16.5825px;line-height:1.75ex;font-family:'Open Sans';-inkscape-font-specification:'Open Sans Ultra-Bold';font-variant-ligatures:normal;font-variant-caps:normal;font-variant-numeric:normal;font-feature-settings:normal;text-align:center;letter-spacing:0px;word-spacing:0px;writing-mode:lr-tb;text-anchor:middle;fill:#000000;fill-opacity:1;stroke:none;stroke-width:0.239042;stroke-opacity:1"
         d="m 205.74166,218.76079 q 0,1.47365 -1.00402,2.22666 -1.00402,0.75301 -2.88251,0.75301 -1.02021,0 -1.77322,-0.11335 -0.75302,-0.10526 -1.53842,-0.39675 v -2.53434 q 0.73682,0.32388 1.61129,0.5344 0.88256,0.21052 1.5708,0.21052 1.02831,0 1.02831,-0.46963 0,-0.2429 -0.29149,-0.42913 -0.28339,-0.19433 -1.66796,-0.74492 -1.26313,-0.5182 -1.76514,-1.17406 -0.50201,-0.66394 -0.50201,-1.67606 0,-1.27932 0.98783,-1.99185 0.98783,-0.71253 2.79344,-0.71253 0.90686,0 1.70036,0.20243 0.80159,0.19432 1.65987,0.57488 l -0.85828,2.04043 q -0.63156,-0.2834 -1.33599,-0.47772 -0.70443,-0.20243 -1.14976,-0.20243 -0.77731,0 -0.77731,0.38056 0,0.23481 0.2672,0.40485 0.27529,0.16194 1.5708,0.67204 0.96354,0.39675 1.43316,0.77731 0.47772,0.38055 0.69634,0.89876 0.22671,0.5101 0.22671,1.24692 z"
         inkscape:connector-curvature="0" />
      <path
         style="opacity:1;fill:#000000;fill-opacity:1;stroke:none;stroke-width:0.45179;stroke-linejoin:bevel;stroke-miterlimit:4;stroke-dasharray:none;stroke-dashoffset:0;stroke-opacity:1"
         d="m 113.51295,194.20493 5.29887,-1.1e-4 5.29883,6e-5 2.6494,4.58889 2.6494,4.5889 -2.64943,4.58884 -2.64947,4.58901 -2.6494,-4.5889 -2.64939,-4.58889 -2.64941,-4.5889 z"
         id="path871"
         inkscape:connector-curvature="0" />
      <path
         inkscape:connector-curvature="0"
         id="path875"
         d="m 102.91536,212.56052 -2.64955,-4.5889 -2.649354,-4.58895 2.649404,-4.5889 2.6494,-4.58889 5.29875,5e-5 5.29894,1e-5 -2.6494,4.58889 -2.6494,4.5889 -2.6494,4.58889 z"
         style="opacity:1;fill:#000000;fill-opacity:1;stroke:none;stroke-width:0.45179;stroke-linejoin:bevel;stroke-miterlimit:4;stroke-dasharray:none;stroke-dashoffset:0;stroke-opacity:1" />
      <path
         style="opacity:1;fill:#000000;fill-opacity:1;stroke:none;stroke-width:0.45179;stroke-linejoin:bevel;stroke-miterlimit:4;stroke-dasharray:none;stroke-dashoffset:0;stroke-opacity:1"
         d="m 124.11055,212.56051 -2.64934,4.58903 -2.64946,4.58888 -5.2988,-1e-5 h -5.2988 l -2.64933,-4.58888 -2.64946,-4.58901 5.29879,-1e-5 5.2988,1e-5 5.2988,-1e-5 z"
         id="path881"
         inkscape:connector-curvature="0" />
      <path
         style="fill:#000000;fill-opacity:1;stroke:none;stroke-width:0.239042px;stroke-linecap:butt;stroke-linejoin:miter;stroke-opacity:1"
         d="m 113.51294,212.56051 5.29881,-9.17778 h -10.59759 z"
         id="path889"
         inkscape:connector-curvature="0" />
    </g>
    <text
       xml:space="preserve"
       style="font-style:italic;font-weight:300;font-size:18.1942px;line-height:1.05;font-family:'Open Sans';-inkscape-font-specification:'Open Sans Light Italic';text-align:center;letter-spacing:0px;text-anchor:middle;fill:#000000;fill-opacity:1;stroke-width:0.264583"
       x="151.98245"
       y="15.273555"
       id="text2804"><tspan
         sodipodi:role="line"
         style="font-style:normal;font-variant:normal;font-weight:600;font-stretch:normal;font-size:18.1942px;font-family:'Open Sans';-inkscape-font-specification:'Open Sans Semi-Bold';font-variant-ligatures:normal;font-variant-caps:normal;font-variant-numeric:normal;font-variant-east-asian:normal;text-align:center;text-anchor:middle;fill:#000000;fill-opacity:1;stroke-width:0.264583"
         x="151.98245"
         y="15.273555"
         id="tspan2806">FIRST Tech Challenge</tspan></text>
    <text
       xml:space="preserve"
       style="font-style:italic;font-weight:300;font-size:36.8403px;line-height:1.05;font-family:'Open Sans';-inkscape-font-specification:'Open Sans Light Italic';text-align:center;letter-spacing:0px;text-anchor:middle;fill:#000000;fill-opacity:1;stroke-width:0.264583"
       x="152.64284"
       y="51.062798"
       id="text20902"><tspan
         sodipodi:role="line"
         style="font-style:normal;font-variant:normal;font-weight:800;font-stretch:normal;font-size:36.8403px;font-family:'Open Sans';-inkscape-font-specification:'Open Sans Ultra-Bold';font-variant-ligatures:normal;font-variant-caps:normal;font-variant-numeric:normal;font-variant-east-asian:normal;text-align:center;text-anchor:middle;fill:#000000;fill-opacity:1;stroke-width:0.264583"
         x="152.64284"
         y="51.062798"
         id="tspan20900">Team 4366</tspan></text>
  </g>
</svg>
